(module KSS331GLFS (layer F.Cu) (tedit 5EB26DA7)
  (fp_text reference REF** (at 0.4 -5.6) (layer F.SilkS)
    (effects (font (size 1 1) (thickness 0.15)))
  )
  (fp_text value KSS331GLFS (at 0.05 -3.9) (layer F.Fab)
    (effects (font (size 1 1) (thickness 0.15)))
  )
  (fp_line (start -3.9 -1.95) (end 3.9 -1.95) (layer F.SilkS) (width 0.2))
  (fp_line (start -3.9 1.95) (end 3.9 1.95) (layer F.SilkS) (width 0.2))
  (fp_line (start -3.9 -1.95) (end -3.9 1.95) (layer F.SilkS) (width 0.2))
  (fp_line (start 3.9 -1.95) (end 3.9 1.95) (layer F.SilkS) (width 0.2))
  (pad 1 smd rect (at -2.95 0) (size 1.7 3.7) (layers F.Cu F.Paste F.Mask))
  (pad 2 smd rect (at 2.95 0) (size 1.7 3.7) (layers F.Cu F.Paste F.Mask))
)
