(module rubberbtn (layer F.Cu) (tedit 5EB20AB1)
  (descr "Imported from rubberbtn.svg")
  (tags svg2mod)
  (attr smd)
  (fp_text reference rubberbtn (at 0.3 -9.5) (layer F.SilkS) hide
    (effects (font (size 1.524 1.524) (thickness 0.3048)))
  )
  (fp_text value G*** (at 0 10) (layer F.SilkS) hide
    (effects (font (size 1.524 1.524) (thickness 0.3048)))
  )
  (fp_circle (center 0 0) (end 6 0) (layer F.SilkS) (width 0.4))
  (fp_poly (pts (xy 3.5 -2.7) (xy -4.3 -2.7) (xy -3.7 -3.3) (xy 2.9 -3.3)) (layer F.Cu) (width 0.1))
  (fp_poly (pts (xy 4.3 -0.7) (xy -5 -0.7) (xy -4.8 -1.3) (xy 4.2 -1.3)) (layer F.Cu) (width 0.1))
  (fp_poly (pts (xy 4.2 1.3) (xy -4.8 1.3) (xy -5 0.7) (xy 4.4 0.7)) (layer F.Cu) (width 0.1))
  (fp_poly (pts (xy 2.9 3.3) (xy -3.8 3.3) (xy -4.2 2.7) (xy 3.5 2.7)) (layer F.Cu) (width 0.1))
  (fp_poly (pts (xy 2.5 4.3) (xy -0.7 4.3) (xy -1.5 4.1) (xy -1.8 4)
    (xy -2.4 3.7) (xy 3.3 3.7)) (layer F.Cu) (width 0.1))
  (fp_poly (pts (xy 4.4 2.3) (xy -3.7 2.3) (xy -3.9 2) (xy -4 1.7)
    (xy 4.7 1.7)) (layer F.Cu) (width 0.1))
  (fp_poly (pts (xy 5 0.3) (xy -4.3 0.3) (xy -4.4 0.1) (xy -4.4 -0.1)
    (xy -4.3 -0.3) (xy 5 -0.3)) (layer F.Cu) (width 0.1))
  (fp_poly (pts (xy 4.7 -1.7) (xy -4 -1.7) (xy -3.9 -2) (xy -3.8 -2.2)
    (xy -3.6 -2.3) (xy 4.4 -2.3)) (layer F.Cu) (width 0.1))
  (fp_poly (pts (xy 3.3 -3.7) (xy -2 -3.7) (xy -1.9 -3.8) (xy -1.5 -4)
    (xy -0.9 -4.2) (xy -0.5 -4.3) (xy 2.4 -4.3)) (layer F.Cu) (width 0.1))
  (fp_arc (start 0 0) (end -0.519999 -4.969999) (angle -168) (layer F.Cu) (width 0.7))
  (fp_arc (start 0 0) (end 0.519999 -4.969999) (angle 168) (layer F.Cu) (width 0.7))
  (fp_circle (center 0 0) (end 2.85 0) (layer F.Mask) (width 5.7))
  (pad 2 smd rect (at 5.8 0) (size 2 1) (layers F.Cu))
  (pad 2 smd roundrect (at 0 4) (size 0.6 0.6) (layers F.Cu) (roundrect_rratio 0.25))
  (pad 2 smd roundrect (at 0 2) (size 0.6 0.6) (layers F.Cu) (roundrect_rratio 0.25))
  (pad 2 smd roundrect (at 0 0) (size 0.6 0.6) (layers F.Cu) (roundrect_rratio 0.25))
  (pad 2 smd roundrect (at 0 -2) (size 0.6 0.6) (layers F.Cu) (roundrect_rratio 0.25))
  (pad 2 smd roundrect (at 0 -4) (size 0.6 0.6) (layers F.Cu) (roundrect_rratio 0.25))
  (pad 1 smd rect (at -5.8 0) (size 2 1) (layers F.Cu))
  (pad 1 smd roundrect (at 0 3) (size 0.6 0.6) (layers F.Cu) (roundrect_rratio 0.25))
  (pad 1 smd roundrect (at 0 1) (size 0.6 0.6) (layers F.Cu) (roundrect_rratio 0.25))
  (pad 1 smd roundrect (at 0 -1) (size 0.6 0.6) (layers F.Cu) (roundrect_rratio 0.25))
  (pad 1 smd roundrect (at 0 -3) (size 0.6 0.6) (layers F.Cu) (roundrect_rratio 0.25))
)
