EESchema Schematic File Version 4
EELAYER 30 0
EELAYER END
$Descr A4 11693 8268
encoding utf-8
Sheet 4 5
Title ""
Date ""
Rev ""
Comp ""
Comment1 ""
Comment2 ""
Comment3 ""
Comment4 ""
$EndDescr
$Comp
L power:GND #PWR0132
U 1 1 5E92DB75
P 5850 2550
F 0 "#PWR0132" H 5850 2300 50  0001 C CNN
F 1 "GND" H 5855 2377 50  0000 C CNN
F 2 "" H 5850 2550 50  0001 C CNN
F 3 "" H 5850 2550 50  0001 C CNN
	1    5850 2550
	1    0    0    -1  
$EndComp
Text GLabel 3850 2100 0    50   Input ~ 0
+5V
Text GLabel 3850 1950 0    50   Input ~ 0
+3.3V
$Comp
L Device:Speaker LS2
U 1 1 5E9636E3
P 9150 4800
F 0 "LS2" H 9320 4796 50  0000 L CNN
F 1 "Speaker" H 9320 4705 50  0000 L CNN
F 2 "newLib:wire" H 9150 4600 50  0001 C CNN
F 3 "~" H 9140 4750 50  0001 C CNN
	1    9150 4800
	1    0    0    1   
$EndComp
$Comp
L Device:C_Small C21
U 1 1 5E9636F5
P 8500 5100
F 0 "C21" H 8592 5146 50  0000 L CNN
F 1 "470pF" H 8592 5055 50  0000 L CNN
F 2 "Capacitor_SMD:C_0603_1608Metric_Pad1.05x0.95mm_HandSolder" H 8500 5100 50  0001 C CNN
F 3 "~" H 8500 5100 50  0001 C CNN
	1    8500 5100
	-1   0    0    -1  
$EndComp
$Comp
L Device:C_Small C23
U 1 1 5E9636FB
P 8700 5100
F 0 "C23" H 8608 5146 50  0000 R CNN
F 1 "470pF" H 8608 5055 50  0000 R CNN
F 2 "Capacitor_SMD:C_0603_1608Metric_Pad1.05x0.95mm_HandSolder" H 8700 5100 50  0001 C CNN
F 3 "~" H 8700 5100 50  0001 C CNN
	1    8700 5100
	-1   0    0    -1  
$EndComp
Wire Wire Line
	8700 4850 8700 5000
Wire Wire Line
	8250 4700 8500 4700
Wire Wire Line
	8500 5000 8500 4700
$Comp
L power:GND #PWR0133
U 1 1 5E96370A
P 8700 5300
F 0 "#PWR0133" H 8700 5050 50  0001 C CNN
F 1 "GND" H 8705 5127 50  0000 C CNN
F 2 "" H 8700 5300 50  0001 C CNN
F 3 "" H 8700 5300 50  0001 C CNN
	1    8700 5300
	-1   0    0    -1  
$EndComp
$Comp
L power:GND #PWR0134
U 1 1 5E963710
P 8500 5300
F 0 "#PWR0134" H 8500 5050 50  0001 C CNN
F 1 "GND" H 8505 5127 50  0000 C CNN
F 2 "" H 8500 5300 50  0001 C CNN
F 3 "" H 8500 5300 50  0001 C CNN
	1    8500 5300
	-1   0    0    -1  
$EndComp
Wire Wire Line
	8700 5200 8700 5300
Wire Wire Line
	8500 5200 8500 5300
Wire Wire Line
	8700 4850 8250 4850
Connection ~ 8500 4700
Text HLabel 5150 5050 2    50   Input ~ 0
SDA
Text HLabel 2900 5350 0    50   Input ~ 0
SCL
Text HLabel 2900 4650 0    50   Input ~ 0
SD
Text HLabel 2900 5150 0    50   Input ~ 0
MCLK
Text HLabel 2900 5050 0    50   Input ~ 0
LRCLK
Text HLabel 5150 5150 2    50   Input ~ 0
SDATA
$Comp
L Device:C_Small C18
U 1 1 5EAB40D5
P 2100 2250
F 0 "C18" H 2192 2296 50  0000 L CNN
F 1 "4.7uF" H 2192 2205 50  0000 L CNN
F 2 "Capacitor_SMD:C_0805_2012Metric_Pad1.15x1.40mm_HandSolder" H 2100 2250 50  0001 C CNN
F 3 "~" H 2100 2250 50  0001 C CNN
	1    2100 2250
	1    0    0    -1  
$EndComp
$Comp
L Device:C_Small C17
U 1 1 5EAB40DB
P 1900 2250
F 0 "C17" H 1808 2296 50  0000 R CNN
F 1 "0.1uF" H 1808 2205 50  0000 R CNN
F 2 "Capacitor_SMD:C_0603_1608Metric_Pad1.05x0.95mm_HandSolder" H 1900 2250 50  0001 C CNN
F 3 "~" H 1900 2250 50  0001 C CNN
	1    1900 2250
	1    0    0    -1  
$EndComp
Wire Wire Line
	1900 2000 1900 2150
$Comp
L power:GND #PWR0135
U 1 1 5EAB40E3
P 1900 2450
F 0 "#PWR0135" H 1900 2200 50  0001 C CNN
F 1 "GND" H 1905 2277 50  0000 C CNN
F 2 "" H 1900 2450 50  0001 C CNN
F 3 "" H 1900 2450 50  0001 C CNN
	1    1900 2450
	1    0    0    -1  
$EndComp
$Comp
L power:GND #PWR0136
U 1 1 5EAB40E9
P 2100 2450
F 0 "#PWR0136" H 2100 2200 50  0001 C CNN
F 1 "GND" H 2105 2277 50  0000 C CNN
F 2 "" H 2100 2450 50  0001 C CNN
F 3 "" H 2100 2450 50  0001 C CNN
	1    2100 2450
	1    0    0    -1  
$EndComp
Wire Wire Line
	1900 2350 1900 2450
Wire Wire Line
	2100 2350 2100 2450
Text GLabel 2000 1800 1    50   Input ~ 0
+5V
Wire Wire Line
	2100 2150 2100 2000
Wire Wire Line
	2100 2000 2000 2000
Wire Wire Line
	2000 1800 2000 2000
Connection ~ 2000 2000
Wire Wire Line
	2000 2000 1900 2000
$Comp
L Device:C_Small C19
U 1 1 5EABF95A
P 2900 2250
F 0 "C19" H 2808 2296 50  0000 R CNN
F 1 "0.1uF" H 2808 2205 50  0000 R CNN
F 2 "Capacitor_SMD:C_0603_1608Metric_Pad1.05x0.95mm_HandSolder" H 2900 2250 50  0001 C CNN
F 3 "~" H 2900 2250 50  0001 C CNN
	1    2900 2250
	1    0    0    -1  
$EndComp
Wire Wire Line
	2900 2000 2900 2150
$Comp
L power:GND #PWR0137
U 1 1 5EABF961
P 2900 2450
F 0 "#PWR0137" H 2900 2200 50  0001 C CNN
F 1 "GND" H 2905 2277 50  0000 C CNN
F 2 "" H 2900 2450 50  0001 C CNN
F 3 "" H 2900 2450 50  0001 C CNN
	1    2900 2450
	1    0    0    -1  
$EndComp
Wire Wire Line
	2900 2350 2900 2450
Text GLabel 2900 2000 1    50   Input ~ 0
+3.3V
$Comp
L SSM2518:SSM2518CPZ U6
U 1 1 5EB27C3D
P 3150 4650
F 0 "U6" H 4050 5137 60  0000 C CNN
F 1 "SSM2518CPZ" H 4050 5031 60  0000 C CNN
F 2 "newLib:SSM2518CPZ" H 4050 4990 60  0001 C CNN
F 3 "https://www.analog.com/media/en/technical-documentation/data-sheets/SSM2518.pdf" H 4050 5031 60  0001 C CNN
	1    3150 4650
	1    0    0    -1  
$EndComp
$Comp
L SSM2518:SSM2518CPZ U6
U 2 1 5EB29403
P 4050 1950
F 0 "U6" H 4850 2337 60  0000 C CNN
F 1 "SSM2518CPZ" H 4850 2231 60  0000 C CNN
F 2 "newLib:SSM2518CPZ" H 4950 2290 60  0001 C CNN
F 3 "https://www.analog.com/media/en/technical-documentation/data-sheets/SSM2518.pdf" H 4850 2231 60  0001 C CNN
	2    4050 1950
	1    0    0    -1  
$EndComp
Wire Wire Line
	4050 1950 3850 1950
Wire Wire Line
	4050 2050 3950 2050
Wire Wire Line
	3950 2050 3950 2100
Wire Wire Line
	3950 2150 4050 2150
Wire Wire Line
	3850 2100 3950 2100
Connection ~ 3950 2100
Wire Wire Line
	3950 2100 3950 2150
Wire Wire Line
	5650 2050 5850 2050
Wire Wire Line
	5850 2050 5850 2150
Wire Wire Line
	5650 2150 5850 2150
Connection ~ 5850 2150
Wire Wire Line
	5850 2150 5850 2250
Wire Wire Line
	5650 2250 5850 2250
Connection ~ 5850 2250
Wire Wire Line
	5850 2250 5850 2350
Wire Wire Line
	5650 2350 5850 2350
Connection ~ 5850 2350
Wire Wire Line
	5850 2350 5850 2550
Wire Wire Line
	8500 4700 8950 4700
Wire Wire Line
	8700 4850 8850 4850
Wire Wire Line
	8850 4850 8850 4800
Wire Wire Line
	8850 4800 8950 4800
Connection ~ 8700 4850
Wire Wire Line
	4950 5050 5150 5050
Wire Wire Line
	5150 5150 4950 5150
Wire Wire Line
	2900 5350 3150 5350
Wire Wire Line
	2900 5150 3150 5150
Wire Wire Line
	2900 5050 3150 5050
Wire Wire Line
	2900 4650 3150 4650
$Comp
L Device:Speaker LS1
U 1 1 5EB9930F
P 9150 2950
F 0 "LS1" H 9320 2946 50  0000 L CNN
F 1 "Speaker" H 9320 2855 50  0000 L CNN
F 2 "newLib:wire" H 9150 2750 50  0001 C CNN
F 3 "~" H 9140 2900 50  0001 C CNN
	1    9150 2950
	1    0    0    1   
$EndComp
$Comp
L Device:C_Small C20
U 1 1 5EB99315
P 8500 3250
F 0 "C20" H 8592 3296 50  0000 L CNN
F 1 "470pF" H 8592 3205 50  0000 L CNN
F 2 "Capacitor_SMD:C_0603_1608Metric_Pad1.05x0.95mm_HandSolder" H 8500 3250 50  0001 C CNN
F 3 "~" H 8500 3250 50  0001 C CNN
	1    8500 3250
	-1   0    0    -1  
$EndComp
$Comp
L Device:C_Small C22
U 1 1 5EB9931B
P 8700 3250
F 0 "C22" H 8608 3296 50  0000 R CNN
F 1 "470pF" H 8608 3205 50  0000 R CNN
F 2 "Capacitor_SMD:C_0603_1608Metric_Pad1.05x0.95mm_HandSolder" H 8700 3250 50  0001 C CNN
F 3 "~" H 8700 3250 50  0001 C CNN
	1    8700 3250
	-1   0    0    -1  
$EndComp
Wire Wire Line
	8700 3000 8700 3150
Wire Wire Line
	8250 2850 8500 2850
Wire Wire Line
	8500 3150 8500 2850
$Comp
L power:GND #PWR0138
U 1 1 5EB99324
P 8700 3450
F 0 "#PWR0138" H 8700 3200 50  0001 C CNN
F 1 "GND" H 8705 3277 50  0000 C CNN
F 2 "" H 8700 3450 50  0001 C CNN
F 3 "" H 8700 3450 50  0001 C CNN
	1    8700 3450
	-1   0    0    -1  
$EndComp
$Comp
L power:GND #PWR0139
U 1 1 5EB9932A
P 8500 3450
F 0 "#PWR0139" H 8500 3200 50  0001 C CNN
F 1 "GND" H 8505 3277 50  0000 C CNN
F 2 "" H 8500 3450 50  0001 C CNN
F 3 "" H 8500 3450 50  0001 C CNN
	1    8500 3450
	-1   0    0    -1  
$EndComp
Wire Wire Line
	8700 3350 8700 3450
Wire Wire Line
	8500 3350 8500 3450
Wire Wire Line
	8700 3000 8250 3000
Connection ~ 8500 2850
$Comp
L JPRIVA_MAF1005G:MAF1608F FB1
U 1 1 5EB99334
P 7950 2750
F 0 "FB1" H 8025 2875 50  0000 C CNN
F 1 "MAF1608F" H 8025 2784 50  0000 C CNN
F 2 "Resistor_SMD:R_0603_1608Metric_Pad1.05x0.95mm_HandSolder" H 8050 2550 50  0001 C CNN
F 3 "https://product.tdk.com/info/en/catalog/datasheets/suppression-filter_commercial_maf1608f_en.pdf" H 8050 2550 50  0001 C CNN
	1    7950 2750
	1    0    0    -1  
$EndComp
Wire Wire Line
	8500 2850 8950 2850
Wire Wire Line
	8700 3000 8850 3000
Wire Wire Line
	8850 3000 8850 2950
Wire Wire Line
	8850 2950 8950 2950
Connection ~ 8700 3000
$Comp
L power:GND #PWR0140
U 1 1 5EB9B50F
P 3000 5550
F 0 "#PWR0140" H 3000 5300 50  0001 C CNN
F 1 "GND" H 3005 5377 50  0000 C CNN
F 2 "" H 3000 5550 50  0001 C CNN
F 3 "" H 3000 5550 50  0001 C CNN
	1    3000 5550
	1    0    0    -1  
$EndComp
Wire Wire Line
	3150 5250 3000 5250
Wire Wire Line
	3000 5250 3000 5550
Wire Wire Line
	3150 4750 3000 4750
Wire Wire Line
	3000 4750 3000 4850
Connection ~ 3000 5250
Wire Wire Line
	3150 4850 3000 4850
Connection ~ 3000 4850
Wire Wire Line
	3000 4850 3000 4950
Wire Wire Line
	3150 4950 3000 4950
Connection ~ 3000 4950
Wire Wire Line
	3000 4950 3000 5250
Text Label 7450 2850 0    50   ~ 0
SPK_L-
Text Label 7450 3000 0    50   ~ 0
SPK_L+
Wire Wire Line
	7450 2850 7800 2850
Wire Wire Line
	7800 3000 7450 3000
Text Label 5300 4550 2    50   ~ 0
SPK_L-
Text Label 5300 4650 2    50   ~ 0
SPK_L+
Wire Wire Line
	5300 4550 4950 4550
Wire Wire Line
	4950 4650 5300 4650
Text Label 5300 4750 2    50   ~ 0
SPK_R-
Text Label 5300 4850 2    50   ~ 0
SPK_R+
Wire Wire Line
	5300 4750 4950 4750
Wire Wire Line
	4950 4850 5300 4850
Text Label 7450 4700 0    50   ~ 0
SPK_R-
Text Label 7450 4850 0    50   ~ 0
SPK_R+
Wire Wire Line
	7450 4700 7800 4700
Wire Wire Line
	7800 4850 7450 4850
$Comp
L JPRIVA_MAF1005G:MAF1608F FB3
U 1 1 5EB2C213
P 7950 4600
F 0 "FB3" H 8025 4725 50  0000 C CNN
F 1 "MAF1608F" H 8025 4634 50  0000 C CNN
F 2 "Resistor_SMD:R_0603_1608Metric_Pad1.05x0.95mm_HandSolder" H 8050 4400 50  0001 C CNN
F 3 "https://product.tdk.com/info/en/catalog/datasheets/suppression-filter_commercial_maf1608f_en.pdf" H 8050 4400 50  0001 C CNN
	1    7950 4600
	1    0    0    -1  
$EndComp
$Comp
L JPRIVA_MAF1005G:MAF1608F FB4
U 1 1 5EB2D772
P 7950 4950
F 0 "FB4" H 8025 5075 50  0000 C CNN
F 1 "MAF1608F" H 8025 4984 50  0000 C CNN
F 2 "Resistor_SMD:R_0603_1608Metric_Pad1.05x0.95mm_HandSolder" H 8050 4750 50  0001 C CNN
F 3 "https://product.tdk.com/info/en/catalog/datasheets/suppression-filter_commercial_maf1608f_en.pdf" H 8050 4750 50  0001 C CNN
	1    7950 4950
	1    0    0    1   
$EndComp
$Comp
L JPRIVA_MAF1005G:MAF1608F FB2
U 1 1 5EB2ACC2
P 7950 3100
F 0 "FB2" H 8025 3225 50  0000 C CNN
F 1 "MAF1608F" H 8025 3134 50  0000 C CNN
F 2 "Resistor_SMD:R_0603_1608Metric_Pad1.05x0.95mm_HandSolder" H 8050 2900 50  0001 C CNN
F 3 "https://product.tdk.com/info/en/catalog/datasheets/suppression-filter_commercial_maf1608f_en.pdf" H 8050 2900 50  0001 C CNN
	1    7950 3100
	1    0    0    1   
$EndComp
$EndSCHEMATC
