EESchema Schematic File Version 4
EELAYER 30 0
EELAYER END
$Descr A4 11693 8268
encoding utf-8
Sheet 2 5
Title ""
Date ""
Rev ""
Comp ""
Comment1 ""
Comment2 ""
Comment3 ""
Comment4 ""
$EndDescr
$Comp
L Connector:USB_B_Micro J1
U 1 1 5E85D22F
P 1050 1800
F 0 "J1" H 1107 2267 50  0000 C CNN
F 1 "USB_B_Micro" H 1107 2176 50  0000 C CNN
F 2 "Connector_USB:USB_Micro-B_Molex-105017-0001" H 1200 1750 50  0001 C CNN
F 3 "~" H 1200 1750 50  0001 C CNN
	1    1050 1800
	1    0    0    -1  
$EndComp
$Comp
L Power_Protection:SP0503BAHT D2
U 1 1 5E85D23B
P 1650 2400
F 0 "D2" H 1855 2446 50  0000 L CNN
F 1 "SP0503BAHT" H 1855 2355 50  0000 L CNN
F 2 "Package_TO_SOT_SMD:SOT-143" H 1875 2350 50  0001 L CNN
F 3 "http://www.littelfuse.com/~/media/files/littelfuse/technical%20resources/documents/data%20sheets/sp05xxba.pdf" H 1775 2525 50  0001 C CNN
	1    1650 2400
	1    0    0    -1  
$EndComp
$Comp
L power:GND #PWR0102
U 1 1 5E85D247
P 1650 2700
F 0 "#PWR0102" H 1650 2450 50  0001 C CNN
F 1 "GND" H 1655 2527 50  0000 C CNN
F 2 "" H 1650 2700 50  0001 C CNN
F 3 "" H 1650 2700 50  0001 C CNN
	1    1650 2700
	1    0    0    -1  
$EndComp
Wire Wire Line
	950  2500 950  2600
Wire Wire Line
	950  2600 1000 2600
Wire Wire Line
	1000 2650 1000 2600
Connection ~ 1000 2600
Wire Wire Line
	1000 2600 1050 2600
Wire Wire Line
	1650 2700 1650 2600
Wire Wire Line
	1650 2200 1650 1900
Wire Wire Line
	1650 1900 1350 1900
Wire Wire Line
	1350 1800 1750 1800
Wire Wire Line
	1750 1800 1750 2200
Wire Wire Line
	1350 1600 1550 1600
Wire Wire Line
	1750 1800 2100 1800
Connection ~ 1750 1800
Connection ~ 1550 1600
Wire Wire Line
	1550 1600 1700 1600
NoConn ~ 1350 2000
Wire Wire Line
	1550 1600 1550 2200
Text Label 1700 1600 0    50   ~ 0
VBUS
Text HLabel 3050 1800 2    50   Input ~ 0
USB_D+
Text HLabel 3050 1900 2    50   Input ~ 0
USB_D-
$Comp
L JPRIVA_TP4056:TP4056 U3
U 1 1 5E873D67
P 6850 1850
F 0 "U3" H 6825 2365 50  0000 C CNN
F 1 "TP4056" H 6825 2274 50  0000 C CNN
F 2 "Package_SO:HSOP-8-1EP_3.9x4.9mm_P1.27mm_EP2.41x3.1mm" H 6850 2250 50  0001 C CNN
F 3 "https://www.sigmaelectronica.net/wp-content/uploads/2018/01/TP4056-lipo-charger.pdf" H 6850 2250 50  0001 C CNN
	1    6850 1850
	1    0    0    -1  
$EndComp
Wire Wire Line
	6400 1650 6200 1650
Wire Wire Line
	6400 1800 6200 1800
Wire Wire Line
	6200 1800 6200 1650
Connection ~ 6200 1650
Wire Wire Line
	6200 1650 6100 1650
$Comp
L Device:R_Small R4
U 1 1 5E879B0C
P 5250 1700
F 0 "R4" H 5309 1746 50  0000 L CNN
F 1 "1K" H 5309 1655 50  0000 L CNN
F 2 "Resistor_SMD:R_0603_1608Metric_Pad1.05x0.95mm_HandSolder" H 5250 1700 50  0001 C CNN
F 3 "~" H 5250 1700 50  0001 C CNN
	1    5250 1700
	1    0    0    -1  
$EndComp
$Comp
L Device:R_Small R5
U 1 1 5E877F62
P 5450 1700
F 0 "R5" H 5509 1746 50  0000 L CNN
F 1 "1K" H 5509 1655 50  0000 L CNN
F 2 "Resistor_SMD:R_0603_1608Metric_Pad1.05x0.95mm_HandSolder" H 5450 1700 50  0001 C CNN
F 3 "~" H 5450 1700 50  0001 C CNN
	1    5450 1700
	1    0    0    -1  
$EndComp
Wire Wire Line
	5450 1950 5450 1800
Wire Wire Line
	5450 1600 5450 1450
Wire Wire Line
	5250 2100 5250 1800
Wire Wire Line
	5250 1600 5250 1450
$Comp
L Device:C_Small C4
U 1 1 5E88689C
P 2250 1100
F 0 "C4" H 2341 1146 50  0000 L CNN
F 1 "22uF" H 2341 1055 50  0000 L CNN
F 2 "Capacitor_SMD:C_1206_3216Metric_Pad1.42x1.75mm_HandSolder" H 2250 1100 50  0001 C CNN
F 3 "~" H 2250 1100 50  0001 C CNN
	1    2250 1100
	1    0    0    -1  
$EndComp
$Comp
L Device:C_Small C6
U 1 1 5E889842
P 2650 1100
F 0 "C6" H 2742 1146 50  0000 L CNN
F 1 "0.1u" H 2742 1055 50  0000 L CNN
F 2 "Capacitor_SMD:C_0603_1608Metric_Pad1.05x0.95mm_HandSolder" H 2650 1100 50  0001 C CNN
F 3 "~" H 2650 1100 50  0001 C CNN
	1    2650 1100
	1    0    0    -1  
$EndComp
Wire Wire Line
	2650 1200 2650 1300
Wire Wire Line
	2250 1300 2250 1200
$Comp
L power:GND #PWR0103
U 1 1 5E88C853
P 2250 1300
F 0 "#PWR0103" H 2250 1050 50  0001 C CNN
F 1 "GND" H 2254 1146 50  0000 C CNN
F 2 "" H 2250 1300 50  0001 C CNN
F 3 "" H 2250 1300 50  0001 C CNN
	1    2250 1300
	1    0    0    -1  
$EndComp
$Comp
L power:GND #PWR0104
U 1 1 5E88DD9D
P 2650 1300
F 0 "#PWR0104" H 2650 1050 50  0001 C CNN
F 1 "GND" H 2654 1146 50  0000 C CNN
F 2 "" H 2650 1300 50  0001 C CNN
F 3 "" H 2650 1300 50  0001 C CNN
	1    2650 1300
	1    0    0    -1  
$EndComp
Wire Wire Line
	3050 900  3050 750 
Wire Wire Line
	2650 1000 2650 900 
Connection ~ 2650 900 
Wire Wire Line
	2650 900  3050 900 
Wire Wire Line
	2250 1000 2250 900 
Wire Wire Line
	1700 900  2250 900 
Connection ~ 2250 900 
Wire Wire Line
	2250 900  2650 900 
Wire Wire Line
	1700 900  1700 1600
Text Label 3050 750  2    50   ~ 0
USB5V
Text Label 5350 650  2    50   ~ 0
USB5V
Wire Wire Line
	6000 1650 6000 1500
Text Label 6000 1500 2    50   ~ 0
USB5V
Wire Wire Line
	5450 1950 6400 1950
Wire Wire Line
	5250 2100 6400 2100
$Comp
L power:GND #PWR0105
U 1 1 5E896C05
P 6850 2500
F 0 "#PWR0105" H 6850 2250 50  0001 C CNN
F 1 "GND" H 6855 2327 50  0000 C CNN
F 2 "" H 6850 2500 50  0001 C CNN
F 3 "" H 6850 2500 50  0001 C CNN
	1    6850 2500
	1    0    0    -1  
$EndComp
Wire Wire Line
	6850 2350 6850 2500
$Comp
L Device:R_Small R8
U 1 1 5E8B2BFC
P 7550 2100
F 0 "R8" V 7354 2100 50  0000 C CNN
F 1 "1.2k" V 7445 2100 50  0000 C CNN
F 2 "Resistor_SMD:R_0603_1608Metric_Pad1.05x0.95mm_HandSolder" H 7550 2100 50  0001 C CNN
F 3 "~" H 7550 2100 50  0001 C CNN
	1    7550 2100
	0    1    1    0   
$EndComp
$Comp
L power:GND #PWR0106
U 1 1 5E8B6E37
P 7850 2500
F 0 "#PWR0106" H 7850 2250 50  0001 C CNN
F 1 "GND" H 7855 2327 50  0000 C CNN
F 2 "" H 7850 2500 50  0001 C CNN
F 3 "" H 7850 2500 50  0001 C CNN
	1    7850 2500
	1    0    0    -1  
$EndComp
Wire Wire Line
	7250 1950 7850 1950
Wire Wire Line
	7850 1950 7850 2100
Wire Wire Line
	7450 2100 7250 2100
Wire Wire Line
	7650 2100 7850 2100
Connection ~ 7850 2100
Wire Wire Line
	7850 2100 7850 2500
Text Label 8450 1500 0    50   ~ 0
VBat
$Comp
L Device:Battery_Cell BT1
U 1 1 5E8F9882
P 8450 1950
F 0 "BT1" H 8568 2046 50  0000 L CNN
F 1 "Battery_Cell" H 8568 1955 50  0000 L CNN
F 2 "newLib:wire" V 8450 2010 50  0001 C CNN
F 3 "~" V 8450 2010 50  0001 C CNN
	1    8450 1950
	1    0    0    -1  
$EndComp
Wire Wire Line
	8450 1650 8450 1750
Wire Wire Line
	8450 1650 8450 1500
Connection ~ 8450 1650
Wire Wire Line
	8450 2050 8450 2200
Text GLabel 4200 6500 2    50   Input ~ 0
+3.3V
$Comp
L Device:C_Small C16
U 1 1 5EA25494
P 8050 1850
F 0 "C16" H 8141 1896 50  0000 L CNN
F 1 "10uF" H 8141 1805 50  0000 L CNN
F 2 "Capacitor_SMD:C_0805_2012Metric_Pad1.15x1.40mm_HandSolder" H 8050 1850 50  0001 C CNN
F 3 "~" H 8050 1850 50  0001 C CNN
	1    8050 1850
	1    0    0    -1  
$EndComp
Wire Wire Line
	8050 1750 8050 1650
Connection ~ 8050 1650
Wire Wire Line
	8050 1650 8450 1650
Wire Wire Line
	7250 1650 8050 1650
$Comp
L power:GND #PWR0119
U 1 1 5EA52217
P 8050 2150
F 0 "#PWR0119" H 8050 1900 50  0001 C CNN
F 1 "GND" H 8055 1977 50  0000 C CNN
F 2 "" H 8050 2150 50  0001 C CNN
F 3 "" H 8050 2150 50  0001 C CNN
	1    8050 2150
	1    0    0    -1  
$EndComp
Wire Wire Line
	8050 1950 8050 2150
$Comp
L power:GND #PWR0101
U 1 1 5E85D241
P 1000 2650
F 0 "#PWR0101" H 1000 2400 50  0001 C CNN
F 1 "GND" H 1005 2477 50  0000 C CNN
F 2 "" H 1000 2650 50  0001 C CNN
F 3 "" H 1000 2650 50  0001 C CNN
	1    1000 2650
	1    0    0    -1  
$EndComp
$Comp
L power:GND #PWR0107
U 1 1 5E8AFEB1
P 8450 2200
F 0 "#PWR0107" H 8450 1950 50  0001 C CNN
F 1 "GND" H 8455 2027 50  0000 C CNN
F 2 "" H 8450 2200 50  0001 C CNN
F 3 "" H 8450 2200 50  0001 C CNN
	1    8450 2200
	1    0    0    -1  
$EndComp
$Comp
L Device:C_Small C12
U 1 1 5E8B268A
P 6100 2300
F 0 "C12" H 6191 2346 50  0000 L CNN
F 1 "10uF" H 6191 2255 50  0000 L CNN
F 2 "Capacitor_SMD:C_0805_2012Metric_Pad1.15x1.40mm_HandSolder" H 6100 2300 50  0001 C CNN
F 3 "~" H 6100 2300 50  0001 C CNN
	1    6100 2300
	1    0    0    -1  
$EndComp
Wire Wire Line
	6100 2200 6100 1650
Connection ~ 6100 1650
Wire Wire Line
	6100 1650 6000 1650
$Comp
L power:GND #PWR0108
U 1 1 5E8B40A1
P 6100 2500
F 0 "#PWR0108" H 6100 2250 50  0001 C CNN
F 1 "GND" H 6105 2327 50  0000 C CNN
F 2 "" H 6100 2500 50  0001 C CNN
F 3 "" H 6100 2500 50  0001 C CNN
	1    6100 2500
	1    0    0    -1  
$EndComp
Wire Wire Line
	6100 2400 6100 2500
$Comp
L JPRIVA_DMP3068:DMP3068 Q1
U 1 1 5E8B6071
P 6500 4150
AR Path="/5E8B6071" Ref="Q1"  Part="1" 
AR Path="/5E85534A/5E8B6071" Ref="Q1"  Part="1" 
F 0 "Q1" H 6704 4196 50  0000 L CNN
F 1 "DMP3068L" H 6704 4105 50  0000 L CNN
F 2 "Package_TO_SOT_SMD:SOT-23" H 6700 4075 50  0001 L CIN
F 3 "https://www.diodes.com/assets/Datasheets/DMP3068L.pdf" V 6500 4150 50  0001 L CNN
	1    6500 4150
	1    0    0    1   
$EndComp
$Comp
L Device:R_Small R7
U 1 1 5E8B934D
P 6600 3600
F 0 "R7" V 6404 3600 50  0000 C CNN
F 1 "100k" V 6495 3600 50  0000 C CNN
F 2 "Resistor_SMD:R_0603_1608Metric" H 6600 3600 50  0001 C CNN
F 3 "~" H 6600 3600 50  0001 C CNN
	1    6600 3600
	1    0    0    -1  
$EndComp
Text Label 6600 3250 2    50   ~ 0
USB5V
$Comp
L Device:R_Small R6
U 1 1 5E8BB197
P 6050 4350
F 0 "R6" V 5854 4350 50  0000 C CNN
F 1 "5.1k" V 5945 4350 50  0000 C CNN
F 2 "Resistor_SMD:R_0603_1608Metric_Pad1.05x0.95mm_HandSolder" H 6050 4350 50  0001 C CNN
F 3 "~" H 6050 4350 50  0001 C CNN
	1    6050 4350
	1    0    0    -1  
$EndComp
Text Label 6050 3250 2    50   ~ 0
USB5V
Wire Wire Line
	6600 3250 6600 3500
Wire Wire Line
	6600 3700 6600 3850
Wire Wire Line
	6050 4250 6050 4150
Wire Wire Line
	6050 4150 6300 4150
Wire Wire Line
	6050 3250 6050 4150
Connection ~ 6050 4150
$Comp
L power:GND #PWR0109
U 1 1 5E8C17DD
P 6050 4550
F 0 "#PWR0109" H 6050 4300 50  0001 C CNN
F 1 "GND" H 6055 4377 50  0000 C CNN
F 2 "" H 6050 4550 50  0001 C CNN
F 3 "" H 6050 4550 50  0001 C CNN
	1    6050 4550
	1    0    0    -1  
$EndComp
$Comp
L power:GND #PWR0110
U 1 1 5E8C2771
P 6600 4750
F 0 "#PWR0110" H 6600 4500 50  0001 C CNN
F 1 "GND" H 6605 4577 50  0000 C CNN
F 2 "" H 6600 4750 50  0001 C CNN
F 3 "" H 6600 4750 50  0001 C CNN
	1    6600 4750
	1    0    0    -1  
$EndComp
Wire Wire Line
	6050 4450 6050 4550
Text Label 6950 3500 0    50   ~ 0
VBat
Wire Wire Line
	6600 3850 6950 3850
Wire Wire Line
	6950 3850 6950 3500
Connection ~ 6600 3850
Wire Wire Line
	6600 3850 6600 3950
$Comp
L Device:C_Small C13
U 1 1 5E8CEF74
P 6600 4550
F 0 "C13" H 6691 4596 50  0000 L CNN
F 1 "10uF" H 6691 4505 50  0000 L CNN
F 2 "Capacitor_SMD:C_0805_2012Metric_Pad1.15x1.40mm_HandSolder" H 6600 4550 50  0001 C CNN
F 3 "~" H 6600 4550 50  0001 C CNN
	1    6600 4550
	1    0    0    -1  
$EndComp
Wire Wire Line
	6600 4350 6600 4400
Wire Wire Line
	6600 4650 6600 4750
Wire Wire Line
	6600 4400 7050 4400
Connection ~ 6600 4400
Wire Wire Line
	6600 4400 6600 4450
Text Label 7050 4400 0    50   ~ 0
Vin
Text Label 4400 3900 0    50   ~ 0
Vin
Wire Wire Line
	4200 3900 4300 3900
Wire Wire Line
	4200 4100 4300 4100
Wire Wire Line
	4300 4100 4300 3900
Connection ~ 4300 3900
Wire Wire Line
	3550 3900 3450 3900
Wire Wire Line
	3450 3900 3450 3550
Wire Wire Line
	4300 3550 4300 3900
$Comp
L power:GND #PWR0111
U 1 1 5E8E0583
P 3900 4650
F 0 "#PWR0111" H 3900 4400 50  0001 C CNN
F 1 "GND" H 3905 4477 50  0000 C CNN
F 2 "" H 3900 4650 50  0001 C CNN
F 3 "" H 3900 4650 50  0001 C CNN
	1    3900 4650
	1    0    0    -1  
$EndComp
Wire Wire Line
	3900 4550 3900 4650
$Comp
L Device:R_Small R2
U 1 1 5E8E6D62
P 3300 4300
F 0 "R2" H 3350 4400 50  0000 C CNN
F 1 "732k" V 3200 4300 50  0000 C CNN
F 2 "Resistor_SMD:R_0603_1608Metric_Pad1.05x0.95mm_HandSolder" H 3300 4300 50  0001 C CNN
F 3 "http://www.vishay.com/docs/20035/dcrcwe3.pdf" H 3300 4300 50  0001 C CNN
	1    3300 4300
	1    0    0    -1  
$EndComp
$Comp
L Device:R_Small R3
U 1 1 5E8E84D9
P 3300 4700
F 0 "R3" H 3350 4800 50  0000 C CNN
F 1 "100k" V 3195 4700 50  0000 C CNN
F 2 "Resistor_SMD:R_0603_1608Metric_Pad1.05x0.95mm_HandSolder" H 3300 4700 50  0001 C CNN
F 3 "http://www.vishay.com/docs/20043/crcwhpe3.pdf" H 3300 4700 50  0001 C CNN
	1    3300 4700
	1    0    0    -1  
$EndComp
$Comp
L power:GND #PWR0112
U 1 1 5E8EA0A6
P 3300 4900
F 0 "#PWR0112" H 3300 4650 50  0001 C CNN
F 1 "GND" H 3305 4727 50  0000 C CNN
F 2 "" H 3300 4900 50  0001 C CNN
F 3 "" H 3300 4900 50  0001 C CNN
	1    3300 4900
	1    0    0    -1  
$EndComp
Wire Wire Line
	3300 4800 3300 4900
Wire Wire Line
	2150 4100 2000 4100
Wire Wire Line
	2000 4100 2000 3850
Wire Wire Line
	1050 4100 800  4100
Wire Wire Line
	800  4100 800  3850
Text Label 800  3850 2    50   ~ 0
USB5V
$Comp
L Device:C_Small C3
U 1 1 5E90E9C2
P 2000 4350
F 0 "C3" H 2092 4396 50  0000 L CNN
F 1 "22u" H 2092 4305 50  0000 L CNN
F 2 "Capacitor_SMD:C_1206_3216Metric_Pad1.42x1.75mm_HandSolder" H 2000 4350 50  0001 C CNN
F 3 "~" H 2000 4350 50  0001 C CNN
	1    2000 4350
	1    0    0    -1  
$EndComp
$Comp
L Device:C_Small C1
U 1 1 5E910BC1
P 1650 4350
F 0 "C1" H 1742 4396 50  0000 L CNN
F 1 "0.1u" H 1742 4305 50  0000 L CNN
F 2 "Capacitor_SMD:C_0603_1608Metric_Pad1.05x0.95mm_HandSolder" H 1650 4350 50  0001 C CNN
F 3 "~" H 1650 4350 50  0001 C CNN
	1    1650 4350
	1    0    0    -1  
$EndComp
Wire Wire Line
	1350 4100 1650 4100
Wire Wire Line
	1650 4250 1650 4100
Connection ~ 1650 4100
Wire Wire Line
	1650 4100 2000 4100
Wire Wire Line
	2000 4250 2000 4100
$Comp
L power:GND #PWR0113
U 1 1 5E92347A
P 1650 4550
F 0 "#PWR0113" H 1650 4300 50  0001 C CNN
F 1 "GND" H 1655 4377 50  0000 C CNN
F 2 "" H 1650 4550 50  0001 C CNN
F 3 "" H 1650 4550 50  0001 C CNN
	1    1650 4550
	1    0    0    -1  
$EndComp
$Comp
L power:GND #PWR0114
U 1 1 5E925782
P 2000 4550
F 0 "#PWR0114" H 2000 4300 50  0001 C CNN
F 1 "GND" H 2005 4377 50  0000 C CNN
F 2 "" H 2000 4550 50  0001 C CNN
F 3 "" H 2000 4550 50  0001 C CNN
	1    2000 4550
	1    0    0    -1  
$EndComp
Wire Wire Line
	1650 4450 1650 4550
Wire Wire Line
	2000 4450 2000 4550
$Comp
L JPRIVA:TPS63001 U1
U 1 1 5E8A3EB3
P 3200 6700
F 0 "U1" H 3200 7367 50  0000 C CNN
F 1 "TPS63001" H 3200 7276 50  0000 C CNN
F 2 "Package_SON:Texas_DRC0010J_ThermalVias" H 4050 6150 50  0001 C CNN
F 3 "http://www.ti.com/lit/ds/symlink/tps63000.pdf" H 2900 7250 50  0001 C CNN
	1    3200 6700
	1    0    0    -1  
$EndComp
$Comp
L power:GND #PWR0115
U 1 1 5E8A5D4E
P 3100 7450
F 0 "#PWR0115" H 3100 7200 50  0001 C CNN
F 1 "GND" H 3105 7277 50  0000 C CNN
F 2 "" H 3100 7450 50  0001 C CNN
F 3 "" H 3100 7450 50  0001 C CNN
	1    3100 7450
	1    0    0    -1  
$EndComp
$Comp
L power:GND #PWR0116
U 1 1 5E8A82BB
P 3200 7450
F 0 "#PWR0116" H 3200 7200 50  0001 C CNN
F 1 "GND" H 3205 7277 50  0000 C CNN
F 2 "" H 3200 7450 50  0001 C CNN
F 3 "" H 3200 7450 50  0001 C CNN
	1    3200 7450
	1    0    0    -1  
$EndComp
Wire Wire Line
	3100 7450 3100 7400
Wire Wire Line
	3200 7300 3200 7450
Wire Wire Line
	3600 6500 3750 6500
Wire Wire Line
	3600 6700 3750 6700
Wire Wire Line
	3750 6700 3750 6500
Wire Wire Line
	3600 6300 3750 6300
Wire Wire Line
	3750 6300 3750 5900
Wire Wire Line
	2700 5900 2700 6300
Wire Wire Line
	2700 6300 2800 6300
$Comp
L Device:R_Small R1
U 1 1 5E8C1CB7
P 2400 6700
F 0 "R1" V 2204 6700 50  0000 C CNN
F 1 "100" V 2295 6700 50  0000 C CNN
F 2 "Resistor_SMD:R_0603_1608Metric_Pad1.05x0.95mm_HandSolder" H 2400 6700 50  0001 C CNN
F 3 "~" H 2400 6700 50  0001 C CNN
	1    2400 6700
	1    0    0    -1  
$EndComp
$Comp
L Device:C_Small C5
U 1 1 5E8C52F5
P 2400 7100
F 0 "C5" H 2492 7146 50  0000 L CNN
F 1 "0.1u" H 2492 7055 50  0000 L CNN
F 2 "Capacitor_SMD:C_0603_1608Metric_Pad1.05x0.95mm_HandSolder" H 2400 7100 50  0001 C CNN
F 3 "https://content.kemet.com/datasheets/KEM_C1023_X7R_AUTO_SMD.pdf" H 2400 7100 50  0001 C CNN
	1    2400 7100
	1    0    0    -1  
$EndComp
Wire Wire Line
	2400 6600 2400 6500
Connection ~ 2400 6500
Wire Wire Line
	2400 6500 2800 6500
Wire Wire Line
	2400 6800 2400 6900
$Comp
L power:GND #PWR0117
U 1 1 5E8E4A7B
P 2400 7300
F 0 "#PWR0117" H 2400 7050 50  0001 C CNN
F 1 "GND" H 2405 7127 50  0000 C CNN
F 2 "" H 2400 7300 50  0001 C CNN
F 3 "" H 2400 7300 50  0001 C CNN
	1    2400 7300
	1    0    0    -1  
$EndComp
Wire Wire Line
	2400 7300 2400 7200
$Comp
L Device:C_Small C2
U 1 1 5E8EC377
P 1950 6850
F 0 "C2" H 2042 6896 50  0000 L CNN
F 1 "10u" H 2042 6805 50  0000 L CNN
F 2 "Capacitor_SMD:C_0805_2012Metric_Pad1.15x1.40mm_HandSolder" H 1950 6850 50  0001 C CNN
F 3 "https://content.kemet.com/datasheets/KEM_C1006_X5R_SMD.pdf" H 1950 6850 50  0001 C CNN
	1    1950 6850
	1    0    0    -1  
$EndComp
Wire Wire Line
	1950 6750 1950 6500
Wire Wire Line
	1950 6500 2200 6500
Connection ~ 1950 6500
$Comp
L power:GND #PWR0118
U 1 1 5E8FF322
P 1950 7100
F 0 "#PWR0118" H 1950 6850 50  0001 C CNN
F 1 "GND" H 1955 6927 50  0000 C CNN
F 2 "" H 1950 7100 50  0001 C CNN
F 3 "" H 1950 7100 50  0001 C CNN
	1    1950 7100
	1    0    0    -1  
$EndComp
Wire Wire Line
	1950 6950 1950 7100
Wire Wire Line
	2800 6900 2700 6900
Wire Wire Line
	2700 6600 2800 6600
Wire Wire Line
	2800 6700 2700 6700
Wire Wire Line
	2700 6600 2700 6700
Connection ~ 2700 6700
Wire Wire Line
	2700 6700 2700 6900
Wire Wire Line
	2700 6900 2400 6900
Connection ~ 2700 6900
Connection ~ 2400 6900
Wire Wire Line
	2400 6900 2400 7000
$Comp
L Device:C_Small C9
U 1 1 5E914E46
P 3950 6850
F 0 "C9" H 4042 6896 50  0000 L CNN
F 1 "10u" H 4042 6805 50  0000 L CNN
F 2 "Capacitor_SMD:C_0805_2012Metric_Pad1.15x1.40mm_HandSolder" H 3950 6850 50  0001 C CNN
F 3 "https://product.tdk.com/info/en/catalog/datasheets/mlcc_commercial_general_en.pdf" H 3950 6850 50  0001 C CNN
	1    3950 6850
	1    0    0    -1  
$EndComp
Wire Wire Line
	3950 6750 3950 6500
$Comp
L power:GND #PWR0120
U 1 1 5E914E4D
P 3950 7100
F 0 "#PWR0120" H 3950 6850 50  0001 C CNN
F 1 "GND" H 3955 6927 50  0000 C CNN
F 2 "" H 3950 7100 50  0001 C CNN
F 3 "" H 3950 7100 50  0001 C CNN
	1    3950 7100
	1    0    0    -1  
$EndComp
Wire Wire Line
	3950 6950 3950 7100
Wire Wire Line
	3750 6500 3950 6500
Connection ~ 3750 6500
Text GLabel 2200 6150 1    50   Input ~ 0
+5V
Wire Wire Line
	1500 6100 1500 5900
Wire Wire Line
	2200 6150 2200 6500
Connection ~ 2200 6500
Wire Wire Line
	2200 6500 2400 6500
Text Label 1500 5900 0    50   ~ 0
+5Voff
Text Label 2000 3850 0    50   ~ 0
+5Voff
$Comp
L Interface_USB:CP2102N-A01-GQFN24 U4
U 1 1 5E8E4DE3
P 9350 4650
F 0 "U4" H 9350 5731 50  0000 C CNN
F 1 "CP2102N-A01-GQFN24" H 9350 5640 50  0000 C CNN
F 2 "Package_DFN_QFN:QFN-24-1EP_4x4mm_P0.5mm_EP2.6x2.6mm" H 9800 3850 50  0001 L CNN
F 3 "https://www.silabs.com/documents/public/data-sheets/cp2102n-datasheet.pdf" H 9400 3600 50  0001 C CNN
	1    9350 4650
	1    0    0    -1  
$EndComp
$Comp
L Device:R_Small R10
U 1 1 5E93A5E3
P 10300 4250
F 0 "R10" V 10104 4250 50  0000 C CNN
F 1 "4.7k" V 10195 4250 50  0000 C CNN
F 2 "Resistor_SMD:R_0603_1608Metric_Pad1.05x0.95mm_HandSolder" H 10300 4250 50  0001 C CNN
F 3 "~" H 10300 4250 50  0001 C CNN
	1    10300 4250
	0    1    1    0   
$EndComp
Wire Wire Line
	9950 4250 10200 4250
Wire Wire Line
	10400 4250 10650 4250
Wire Wire Line
	9950 4350 10650 4350
Wire Wire Line
	9950 4450 10650 4450
Text HLabel 8450 5050 0    50   Input ~ 0
USB_D+
Text HLabel 8450 5150 0    50   Input ~ 0
USB_D-
Wire Wire Line
	8450 5050 8750 5050
Wire Wire Line
	8450 5150 8750 5150
Wire Wire Line
	8750 4650 8650 4650
Wire Wire Line
	8650 4650 8650 4950
Wire Wire Line
	8650 4950 8750 4950
$Comp
L Device:C_Small C15
U 1 1 5E990880
P 7800 4850
F 0 "C15" H 7892 4896 50  0000 L CNN
F 1 "0.1u" H 7892 4805 50  0000 L CNN
F 2 "Capacitor_SMD:C_0603_1608Metric_Pad1.05x0.95mm_HandSolder" H 7800 4850 50  0001 C CNN
F 3 "~" H 7800 4850 50  0001 C CNN
	1    7800 4850
	1    0    0    -1  
$EndComp
$Comp
L Device:C_Small C14
U 1 1 5E996524
P 7450 4850
F 0 "C14" H 7542 4896 50  0000 L CNN
F 1 "0.1u" H 7542 4805 50  0000 L CNN
F 2 "Capacitor_SMD:C_0603_1608Metric_Pad1.05x0.95mm_HandSolder" H 7450 4850 50  0001 C CNN
F 3 "~" H 7450 4850 50  0001 C CNN
	1    7450 4850
	1    0    0    -1  
$EndComp
$Comp
L power:GND #PWR0121
U 1 1 5E99C43B
P 7450 5050
F 0 "#PWR0121" H 7450 4800 50  0001 C CNN
F 1 "GND" H 7455 4877 50  0000 C CNN
F 2 "" H 7450 5050 50  0001 C CNN
F 3 "" H 7450 5050 50  0001 C CNN
	1    7450 5050
	1    0    0    -1  
$EndComp
$Comp
L power:GND #PWR0122
U 1 1 5E9A1E49
P 7800 5050
F 0 "#PWR0122" H 7800 4800 50  0001 C CNN
F 1 "GND" H 7805 4877 50  0000 C CNN
F 2 "" H 7800 5050 50  0001 C CNN
F 3 "" H 7800 5050 50  0001 C CNN
	1    7800 5050
	1    0    0    -1  
$EndComp
Wire Wire Line
	8650 4650 8250 4650
Wire Wire Line
	7450 4650 7450 4750
Connection ~ 8650 4650
Wire Wire Line
	7800 4750 7800 4650
Connection ~ 7800 4650
Wire Wire Line
	7800 4650 7450 4650
Wire Wire Line
	7450 4950 7450 5050
Wire Wire Line
	7800 4950 7800 5050
Wire Wire Line
	9250 3750 9250 3600
Wire Wire Line
	9250 3600 8750 3600
Wire Wire Line
	8250 3600 8250 4650
Connection ~ 8250 4650
Wire Wire Line
	8250 4650 7800 4650
NoConn ~ 9950 4050
NoConn ~ 9950 4150
NoConn ~ 9950 4550
NoConn ~ 9950 4650
NoConn ~ 9950 4750
NoConn ~ 9950 4950
NoConn ~ 9950 5050
NoConn ~ 9950 5150
NoConn ~ 9950 5250
NoConn ~ 8750 4350
NoConn ~ 8750 4450
$Comp
L power:GND #PWR0123
U 1 1 5EA1228D
P 9350 5700
F 0 "#PWR0123" H 9350 5450 50  0001 C CNN
F 1 "GND" H 9355 5527 50  0000 C CNN
F 2 "" H 9350 5700 50  0001 C CNN
F 3 "" H 9350 5700 50  0001 C CNN
	1    9350 5700
	1    0    0    -1  
$EndComp
$Comp
L power:GND #PWR0124
U 1 1 5EA18671
P 9450 5700
F 0 "#PWR0124" H 9450 5450 50  0001 C CNN
F 1 "GND" H 9455 5527 50  0000 C CNN
F 2 "" H 9450 5700 50  0001 C CNN
F 3 "" H 9450 5700 50  0001 C CNN
	1    9450 5700
	1    0    0    -1  
$EndComp
Wire Wire Line
	9350 5700 9350 5550
Wire Wire Line
	9450 5550 9450 5700
Text HLabel 10650 4350 2    50   Input ~ 0
PC_RXD
Text HLabel 10650 4450 2    50   Input ~ 0
PC_TXD
Wire Wire Line
	8750 3350 8750 3600
Connection ~ 8750 3600
Wire Wire Line
	8750 3600 8550 3600
Wire Wire Line
	10650 4250 10650 3600
Wire Wire Line
	10650 3600 9350 3600
Connection ~ 9250 3600
Text GLabel 8750 3350 1    50   Input ~ 0
+3.3V
Wire Wire Line
	9350 3750 9350 3600
Connection ~ 9350 3600
Wire Wire Line
	9350 3600 9250 3600
$Comp
L Device:R_Small R9
U 1 1 5EA22854
P 8550 3850
F 0 "R9" V 8354 3850 50  0000 C CNN
F 1 "1k" V 8445 3850 50  0000 C CNN
F 2 "Resistor_SMD:R_0603_1608Metric_Pad1.05x0.95mm_HandSolder" H 8550 3850 50  0001 C CNN
F 3 "~" H 8550 3850 50  0001 C CNN
	1    8550 3850
	1    0    0    -1  
$EndComp
Wire Wire Line
	8750 4050 8550 4050
Wire Wire Line
	8550 4050 8550 3950
Wire Wire Line
	8550 3750 8550 3600
Connection ~ 8550 3600
Wire Wire Line
	8550 3600 8250 3600
$Comp
L V0.3-rescue:TPS61023-JPRIVA_TPS61023 U2
U 1 1 5EA2B0DB
P 3900 4150
F 0 "U2" V 3700 3750 50  0000 C CNN
F 1 "TPS61023" V 3600 3800 50  0000 C CNN
F 2 "Package_TO_SOT_SMD:SOT-563" H 3850 4600 50  0001 C CNN
F 3 "http://www.ti.com/lit/ds/symlink/tps61023.pdf" H 3850 4600 50  0001 C CNN
	1    3900 4150
	1    0    0    -1  
$EndComp
Connection ~ 2000 4100
Wire Wire Line
	3300 4400 3300 4500
$Comp
L Device:C_Small C8
U 1 1 5EA79794
P 2900 4350
F 0 "C8" H 2992 4396 50  0000 L CNN
F 1 "15u" H 2992 4305 50  0000 L CNN
F 2 "Capacitor_SMD:C_0805_2012Metric_Pad1.15x1.40mm_HandSolder" H 2900 4350 50  0001 C CNN
F 3 "https://product.tdk.com/info/en/catalog/datasheets/mlcc_commercial_general_en.pdf" H 2900 4350 50  0001 C CNN
	1    2900 4350
	1    0    0    -1  
$EndComp
Wire Wire Line
	2900 4250 2900 4100
$Comp
L power:GND #PWR0125
U 1 1 5EA7979B
P 2900 4550
F 0 "#PWR0125" H 2900 4300 50  0001 C CNN
F 1 "GND" H 2905 4377 50  0000 C CNN
F 2 "" H 2900 4550 50  0001 C CNN
F 3 "" H 2900 4550 50  0001 C CNN
	1    2900 4550
	1    0    0    -1  
$EndComp
Wire Wire Line
	2900 4450 2900 4550
$Comp
L Device:C_Small C10
U 1 1 5EA9FD2D
P 4450 4350
F 0 "C10" H 4542 4396 50  0000 L CNN
F 1 "10u" H 4542 4305 50  0000 L CNN
F 2 "Capacitor_SMD:C_0805_2012Metric_Pad1.15x1.40mm_HandSolder" H 4450 4350 50  0001 C CNN
F 3 "https://content.kemet.com/datasheets/KEM_C1006_X5R_SMD.pdf" H 4450 4350 50  0001 C CNN
	1    4450 4350
	1    0    0    -1  
$EndComp
$Comp
L power:GND #PWR0126
U 1 1 5EA9FD34
P 4450 4550
F 0 "#PWR0126" H 4450 4300 50  0001 C CNN
F 1 "GND" H 4455 4377 50  0000 C CNN
F 2 "" H 4450 4550 50  0001 C CNN
F 3 "" H 4450 4550 50  0001 C CNN
	1    4450 4550
	1    0    0    -1  
$EndComp
Wire Wire Line
	4450 4450 4450 4550
$Comp
L Device:C_Small C11
U 1 1 5EAB9B10
P 4800 4350
F 0 "C11" H 4892 4396 50  0000 L CNN
F 1 "10u" H 4892 4305 50  0000 L CNN
F 2 "Capacitor_SMD:C_0805_2012Metric_Pad1.15x1.40mm_HandSolder" H 4800 4350 50  0001 C CNN
F 3 "https://content.kemet.com/datasheets/KEM_C1006_X5R_SMD.pdf" H 4800 4350 50  0001 C CNN
	1    4800 4350
	1    0    0    -1  
$EndComp
$Comp
L power:GND #PWR0127
U 1 1 5EAB9B17
P 4800 4550
F 0 "#PWR0127" H 4800 4300 50  0001 C CNN
F 1 "GND" H 4805 4377 50  0000 C CNN
F 2 "" H 4800 4550 50  0001 C CNN
F 3 "" H 4800 4550 50  0001 C CNN
	1    4800 4550
	1    0    0    -1  
$EndComp
Wire Wire Line
	4800 4450 4800 4550
Wire Wire Line
	2700 4250 2700 4100
$Comp
L power:GND #PWR0128
U 1 1 5EAC0C15
P 2700 4550
F 0 "#PWR0128" H 2700 4300 50  0001 C CNN
F 1 "GND" H 2705 4377 50  0000 C CNN
F 2 "" H 2700 4550 50  0001 C CNN
F 3 "" H 2700 4550 50  0001 C CNN
	1    2700 4550
	1    0    0    -1  
$EndComp
Wire Wire Line
	2700 4450 2700 4550
Wire Wire Line
	2450 4100 2700 4100
Wire Wire Line
	2700 4100 2900 4100
Connection ~ 2700 4100
Wire Wire Line
	2900 4100 3300 4100
Connection ~ 2900 4100
Wire Wire Line
	3550 4200 3450 4200
Wire Wire Line
	3450 4200 3450 4500
Wire Wire Line
	3450 4500 3300 4500
Connection ~ 3300 4500
Wire Wire Line
	3300 4500 3300 4600
Wire Wire Line
	3300 4100 3300 4200
Connection ~ 3300 4100
Wire Wire Line
	3300 4100 3550 4100
Wire Wire Line
	4300 3900 4450 3900
Wire Wire Line
	4450 3900 4450 4250
Wire Wire Line
	4800 3900 4450 3900
Wire Wire Line
	4800 3900 4800 4250
Connection ~ 4450 3900
$Comp
L SRF2012-900YA:SRF2012-900YA L1
U 1 1 5EB2FD1E
P 2100 1800
F 0 "L1" H 2400 2039 60  0000 C CNN
F 1 "SRF2012-900YA" H 2400 1933 60  0000 C CNN
F 2 "newLib:SRF2012-900YA" H 2375 1515 60  0001 C CNN
F 3 "https://www.bourns.com/docs/Product-Datasheets/SRF2012A.pdf" H 2100 1800 60  0001 C CNN
	1    2100 1800
	1    0    0    -1  
$EndComp
Wire Wire Line
	2700 1800 3050 1800
$Comp
L VLF302515MT-R47N:VLF302515MT-R47N L3
U 1 1 5EB3F992
P 3550 3550
F 0 "L3" H 3850 3789 60  0000 C CNN
F 1 "VLF302515MT-R47N" H 3850 3683 60  0000 C CNN
F 2 "newLib:VLF302515MT-R47N" H 3825 3265 60  0001 C CNN
F 3 "https://media.digikey.com/pdf/Data%20Sheets/TDK%20PDFs/VLF302515MT_Series.pdf" H 3850 3683 60  0001 C CNN
	1    3550 3550
	1    0    0    -1  
$EndComp
Wire Wire Line
	3450 3550 3550 3550
Wire Wire Line
	4150 3550 4300 3550
$Comp
L Device:C_Small C7
U 1 1 5EB52009
P 2700 4350
F 0 "C7" H 2792 4396 50  0000 L CNN
F 1 "15u" H 2792 4305 50  0000 L CNN
F 2 "Capacitor_SMD:C_0805_2012Metric_Pad1.15x1.40mm_HandSolder" H 2700 4350 50  0001 C CNN
F 3 "https://product.tdk.com/info/en/catalog/datasheets/mlcc_commercial_general_en.pdf" H 2700 4350 50  0001 C CNN
	1    2700 4350
	-1   0    0    1   
$EndComp
$Comp
L SDR0403-3R3ML:SDR0403-3R3ML L2
U 1 1 5EB36E40
P 2900 5900
F 0 "L2" H 3200 6139 60  0000 C CNN
F 1 "SDR0403-3R3ML" H 3200 6033 60  0000 C CNN
F 2 "newLib:SDR0403-3R3ML" H 3175 5615 60  0001 C CNN
F 3 "" H 2900 5900 60  0000 C CNN
	1    2900 5900
	1    0    0    -1  
$EndComp
Wire Wire Line
	2700 5900 2900 5900
Wire Wire Line
	3500 5900 3750 5900
Wire Wire Line
	3950 6500 4200 6500
Connection ~ 3950 6500
$Comp
L JPRIVA:LED_Dual D4
U 1 1 5EB7E78A
P 5350 1150
F 0 "D4" V 5304 1438 50  0000 L CNN
F 1 "LED_Dual" V 5395 1438 50  0000 L CNN
F 2 "newLib:APHBM2012LSURKZGKC" H 5380 1150 50  0001 C CNN
F 3 "http://www.kingbrightusa.com/images/catalog/SPEC/APHBM2012LSURKZGKC.pdf" H 5380 1150 50  0001 C CNN
	1    5350 1150
	0    1    1    0   
$EndComp
Wire Wire Line
	5250 850  5250 750 
Wire Wire Line
	5250 750  5350 750 
Wire Wire Line
	5450 750  5450 850 
Wire Wire Line
	5350 750  5350 650 
Connection ~ 5350 750 
Wire Wire Line
	5350 750  5450 750 
$Comp
L Switch:SW_Push_SPDT SW1
U 1 1 5EBF2AAD
P 1600 6300
F 0 "SW1" V 1646 6112 50  0000 R CNN
F 1 "SW_Push_SPDT" V 1555 6112 50  0000 R CNN
F 2 "Button_Switch_THT:SW_E-Switch_EG1224_SPDT_Angled" H 1600 6300 50  0001 C CNN
F 3 "~" H 1600 6300 50  0001 C CNN
	1    1600 6300
	0    -1   -1   0   
$EndComp
Wire Wire Line
	1600 6500 1950 6500
Wire Wire Line
	1650 1900 2100 1900
Connection ~ 1650 1900
Wire Wire Line
	2700 1900 3050 1900
$Comp
L Diode:B220 D3
U 1 1 5EC68D73
P 2300 4100
F 0 "D3" H 2300 4316 50  0000 C CNN
F 1 "B220" H 2300 4225 50  0000 C CNN
F 2 "Diode_SMD:D_SMB" H 2300 3925 50  0001 C CNN
F 3 "http://www.jameco.com/Jameco/Products/ProdDS/1538777.pdf" H 2300 4100 50  0001 C CNN
	1    2300 4100
	1    0    0    -1  
$EndComp
$Comp
L Diode:B220 D1
U 1 1 5EC73886
P 1200 4100
F 0 "D1" H 1200 4316 50  0000 C CNN
F 1 "B220" H 1200 4225 50  0000 C CNN
F 2 "Diode_SMD:D_SMB" H 1200 3925 50  0001 C CNN
F 3 "http://www.jameco.com/Jameco/Products/ProdDS/1538777.pdf" H 1200 4100 50  0001 C CNN
	1    1200 4100
	-1   0    0    1   
$EndComp
$Comp
L Device:L_Small L?
U 1 1 5ED969C8
P 950 2400
AR Path="/5E934C03/5ED969C8" Ref="L?"  Part="1" 
AR Path="/5E85534A/5ED969C8" Ref="L7"  Part="1" 
F 0 "L7" H 800 2450 50  0000 L CNN
F 1 "L_Small" H 650 2350 50  0000 L CNN
F 2 "Inductor_SMD:L_0603_1608Metric_Pad1.05x0.95mm_HandSolder" H 950 2400 50  0001 C CNN
F 3 "https://www.murata.com/en-us/products/productdata/8796738650142/ENFA0003.pdf" H 950 2400 50  0001 C CNN
	1    950  2400
	1    0    0    -1  
$EndComp
Wire Wire Line
	950  2300 950  2200
Wire Wire Line
	1050 2200 1050 2600
Text Label 1900 1800 2    50   ~ 0
USB1_D+
Text Label 1900 1900 2    50   ~ 0
USB1_D-
Wire Wire Line
	3000 7300 3000 7400
Wire Wire Line
	3000 7400 3100 7400
Connection ~ 3100 7400
Wire Wire Line
	3100 7400 3100 7300
$EndSCHEMATC
