EESchema Schematic File Version 4
EELAYER 30 0
EELAYER END
$Descr A4 11693 8268
encoding utf-8
Sheet 5 5
Title ""
Date ""
Rev ""
Comp ""
Comment1 ""
Comment2 ""
Comment3 ""
Comment4 ""
$EndDescr
Wire Wire Line
	6450 3750 6150 3750
Wire Wire Line
	6450 3850 6150 3850
Wire Wire Line
	6450 3950 6150 3950
Wire Wire Line
	6450 4050 6150 4050
Wire Wire Line
	6450 4150 6150 4150
Wire Wire Line
	6450 4250 6150 4250
Wire Wire Line
	6450 4350 6150 4350
Wire Wire Line
	6450 4450 6150 4450
Wire Wire Line
	6450 3250 6150 3250
Wire Wire Line
	6450 3150 6150 3150
Wire Wire Line
	6450 3050 6150 3050
Wire Wire Line
	6450 2950 6150 2950
Text Label 6150 4450 0    50   ~ 0
D7
Text Label 6150 4350 0    50   ~ 0
D6
Text Label 6150 4250 0    50   ~ 0
D5
Text Label 6150 4150 0    50   ~ 0
D4
Text Label 6150 4050 0    50   ~ 0
D3
Text Label 6150 3950 0    50   ~ 0
D2
Text Label 6150 3850 0    50   ~ 0
D1
Text Label 6150 3750 0    50   ~ 0
D0
Text Label 6150 3250 0    50   ~ 0
RD
Text Label 6150 3150 0    50   ~ 0
WR
Text Label 6150 3050 0    50   ~ 0
CD
Text Label 6150 2950 0    50   ~ 0
CS
Wire Wire Line
	3150 5000 3450 5000
Text Label 3450 5000 2    50   ~ 0
D0
Wire Wire Line
	1750 4200 1450 4200
Text Label 1450 4200 0    50   ~ 0
D1
Wire Wire Line
	1750 4700 1450 4700
Text Label 1450 4700 0    50   ~ 0
D2
Wire Wire Line
	1750 4800 1450 4800
Wire Wire Line
	3150 2200 3450 2200
Wire Wire Line
	3150 2300 3450 2300
Wire Wire Line
	3150 2400 3450 2400
Wire Wire Line
	3150 2500 3450 2500
Text Label 3450 2500 2    50   ~ 0
D7
Text Label 3450 2400 2    50   ~ 0
D6
Text Label 3450 2300 2    50   ~ 0
D5
Text Label 3450 2200 2    50   ~ 0
D4
Text Label 1450 4800 0    50   ~ 0
D3
Wire Wire Line
	1750 4100 1450 4100
Wire Wire Line
	1750 3400 1450 3400
Wire Wire Line
	1750 3900 1450 3900
Wire Wire Line
	1750 4000 1450 4000
Text Label 1450 4100 0    50   ~ 0
RD
Text Label 1450 3400 0    50   ~ 0
WR
Text Label 1450 3900 0    50   ~ 0
CD
Text Label 1450 4000 0    50   ~ 0
CS
$Comp
L power:GND #PWR0143
U 1 1 5E98B7D1
P 2400 5550
F 0 "#PWR0143" H 2400 5300 50  0001 C CNN
F 1 "GND" H 2405 5377 50  0000 C CNN
F 2 "" H 2400 5550 50  0001 C CNN
F 3 "" H 2400 5550 50  0001 C CNN
	1    2400 5550
	1    0    0    -1  
$EndComp
Wire Wire Line
	2250 5300 2250 5350
Wire Wire Line
	2250 5350 2350 5350
Wire Wire Line
	2550 5350 2550 5300
Wire Wire Line
	2350 5300 2350 5350
Connection ~ 2350 5350
Wire Wire Line
	2450 5300 2450 5350
Connection ~ 2450 5350
Wire Wire Line
	2450 5350 2550 5350
Text HLabel 3450 3500 2    50   Input ~ 0
JTAG_TDI
Text HLabel 3450 4000 2    50   Input ~ 0
JTAG_TDO
Text HLabel 3450 3400 2    50   Input ~ 0
JTAG_TCK
$Comp
L MCU_ST_STM32F4:STM32F413RHTx U7
U 1 1 5E95B083
P 2450 3500
F 0 "U7" H 2450 2450 50  0000 C CNN
F 1 "STM32F413RHTx" H 2450 2350 50  0000 C CNN
F 2 "Package_QFP:LQFP-64_10x10mm_P0.5mm" H 1850 1800 50  0001 R CNN
F 3 "http://www.st.com/st-web-ui/static/active/en/resource/technical/document/datasheet/DM00282249.pdf" H 2450 3500 50  0001 C CNN
	1    2450 3500
	1    0    0    -1  
$EndComp
Text GLabel 2500 1450 1    50   Input ~ 0
+3.3V
Wire Wire Line
	2350 1800 2350 1700
Wire Wire Line
	2350 1700 2450 1700
Wire Wire Line
	2650 1700 2650 1800
Wire Wire Line
	2550 1800 2550 1700
Connection ~ 2550 1700
Wire Wire Line
	2550 1700 2650 1700
Wire Wire Line
	2450 1800 2450 1700
Connection ~ 2450 1700
Wire Wire Line
	2450 1700 2500 1700
Wire Wire Line
	2500 1450 2500 1700
Connection ~ 2500 1700
Wire Wire Line
	2500 1700 2550 1700
$Comp
L Device:C_Small C39
U 1 1 5E9827D0
P 6500 1250
F 0 "C39" H 6592 1296 20  0000 L TNN
F 1 "0.1uF" H 6592 1205 20  0000 L TNN
F 2 "Capacitor_SMD:C_0603_1608Metric_Pad1.05x0.95mm_HandSolder" H 6500 1250 50  0001 C CNN
F 3 "~" H 6500 1250 50  0001 C CNN
F 4 "C" H 6500 1250 50  0001 C CNN "Spice_Primitive"
F 5 "0.1u" H 6500 1250 50  0001 C CNN "Spice_Model"
F 6 "Y" H 6500 1250 50  0001 C CNN "Spice_Netlist_Enabled"
	1    6500 1250
	1    0    0    -1  
$EndComp
$Comp
L Device:C_Small C40
U 1 1 5E986530
P 6750 1250
F 0 "C40" H 6842 1296 20  0000 L TNN
F 1 "0.1uF" H 6842 1205 20  0000 L TNN
F 2 "Capacitor_SMD:C_0603_1608Metric_Pad1.05x0.95mm_HandSolder" H 6750 1250 50  0001 C CNN
F 3 "~" H 6750 1250 50  0001 C CNN
F 4 "C" H 6750 1250 50  0001 C CNN "Spice_Primitive"
F 5 "0.1u" H 6750 1250 50  0001 C CNN "Spice_Model"
F 6 "Y" H 6750 1250 50  0001 C CNN "Spice_Netlist_Enabled"
	1    6750 1250
	1    0    0    -1  
$EndComp
$Comp
L Device:C_Small C41
U 1 1 5E9877F2
P 7000 1250
F 0 "C41" H 7092 1296 20  0000 L TNN
F 1 "0.1uF" H 7092 1205 20  0000 L TNN
F 2 "Capacitor_SMD:C_0603_1608Metric_Pad1.05x0.95mm_HandSolder" H 7000 1250 50  0001 C CNN
F 3 "~" H 7000 1250 50  0001 C CNN
F 4 "C" H 7000 1250 50  0001 C CNN "Spice_Primitive"
F 5 "0.1u" H 7000 1250 50  0001 C CNN "Spice_Model"
F 6 "Y" H 7000 1250 50  0001 C CNN "Spice_Netlist_Enabled"
	1    7000 1250
	1    0    0    -1  
$EndComp
$Comp
L Device:C_Small C42
U 1 1 5E988A7A
P 7250 1250
F 0 "C42" H 7342 1296 20  0000 L TNN
F 1 "0.1uF" H 7342 1205 20  0000 L TNN
F 2 "Capacitor_SMD:C_0603_1608Metric_Pad1.05x0.95mm_HandSolder" H 7250 1250 50  0001 C CNN
F 3 "~" H 7250 1250 50  0001 C CNN
F 4 "C" H 7250 1250 50  0001 C CNN "Spice_Primitive"
F 5 "0.1u" H 7250 1250 50  0001 C CNN "Spice_Model"
F 6 "Y" H 7250 1250 50  0001 C CNN "Spice_Netlist_Enabled"
	1    7250 1250
	1    0    0    -1  
$EndComp
$Comp
L Device:C_Small C43
U 1 1 5E989D24
P 7500 1250
F 0 "C43" H 7592 1296 20  0000 L TNN
F 1 "4.7u" H 7592 1205 20  0000 L TNN
F 2 "Capacitor_SMD:C_0805_2012Metric_Pad1.15x1.40mm_HandSolder" H 7500 1250 50  0001 C CNN
F 3 "~" H 7500 1250 50  0001 C CNN
F 4 "C" H 7500 1250 50  0001 C CNN "Spice_Primitive"
F 5 "0.1u" H 7500 1250 50  0001 C CNN "Spice_Model"
F 6 "Y" H 7500 1250 50  0001 C CNN "Spice_Netlist_Enabled"
	1    7500 1250
	1    0    0    -1  
$EndComp
$Comp
L power:GND #PWR0144
U 1 1 5E98ABFF
P 7000 1550
F 0 "#PWR0144" H 7000 1300 50  0001 C CNN
F 1 "GND" H 7005 1377 50  0000 C CNN
F 2 "" H 7000 1550 50  0001 C CNN
F 3 "" H 7000 1550 50  0001 C CNN
	1    7000 1550
	1    0    0    -1  
$EndComp
Wire Wire Line
	6500 1150 6500 1050
Wire Wire Line
	6500 1050 6750 1050
Wire Wire Line
	7500 1050 7500 1150
Wire Wire Line
	6500 1350 6500 1450
Wire Wire Line
	6500 1450 6750 1450
Wire Wire Line
	7500 1450 7500 1350
Wire Wire Line
	6750 1350 6750 1450
Connection ~ 6750 1450
Wire Wire Line
	6750 1450 7000 1450
Wire Wire Line
	7000 1350 7000 1450
Connection ~ 7000 1450
Wire Wire Line
	7000 1450 7250 1450
Wire Wire Line
	7250 1350 7250 1450
Connection ~ 7250 1450
Wire Wire Line
	7250 1450 7500 1450
Wire Wire Line
	7250 1150 7250 1050
Connection ~ 7250 1050
Wire Wire Line
	7250 1050 7500 1050
Wire Wire Line
	7000 1150 7000 1050
Connection ~ 7000 1050
Wire Wire Line
	7000 1050 7250 1050
Wire Wire Line
	6750 1150 6750 1050
Connection ~ 6750 1050
Wire Wire Line
	6750 1050 7000 1050
Wire Wire Line
	7000 1550 7000 1450
Text GLabel 7000 950  1    50   Input ~ 0
+3.3V
Wire Wire Line
	7000 950  7000 1050
Text HLabel 3450 3300 2    50   Input ~ 0
JTAG_TMS
Text HLabel 3450 4100 2    50   Input ~ 0
JTAG_TRST
Wire Wire Line
	3150 3300 3450 3300
Wire Wire Line
	3450 3400 3150 3400
Wire Wire Line
	3450 3500 3150 3500
Wire Wire Line
	3450 4000 3150 4000
Wire Wire Line
	3450 4100 3150 4100
Text HLabel 3450 4400 2    50   Input ~ 0
I2C_SDA
Text HLabel 3450 4300 2    50   Input ~ 0
I2C_SCL
Text Label 1450 3100 0    50   ~ 0
OSC_IN
Text Label 1450 3200 0    50   ~ 0
OSC_OUT
Wire Wire Line
	1450 3100 1750 3100
Wire Wire Line
	1450 3200 1750 3200
Text HLabel 1450 3800 0    50   Input ~ 0
SPI_MISO
Text HLabel 3450 2000 2    50   Input ~ 0
UART_TX
Text HLabel 3450 2100 2    50   Input ~ 0
UART_RX
Wire Wire Line
	3150 2000 3450 2000
Wire Wire Line
	3150 2100 3450 2100
Wire Wire Line
	1750 3800 1450 3800
Wire Wire Line
	3450 4300 3150 4300
Wire Wire Line
	3450 4400 3150 4400
Text HLabel 3450 5100 2    50   Input ~ 0
SPI_MOSI
Text HLabel 3450 4700 2    50   Input ~ 0
SPI_SCK
Wire Wire Line
	3450 4700 3150 4700
Wire Wire Line
	3450 5100 3150 5100
Wire Wire Line
	3450 3100 3150 3100
Wire Wire Line
	3450 3200 3150 3200
$Comp
L Connector:USB_A J3
U 1 1 5EA0428B
P 4150 6700
F 0 "J3" H 4207 7167 50  0000 C CNN
F 1 "USB_A" H 4207 7076 50  0000 C CNN
F 2 "Connector_USB:USB_A_Stewart_SS-52100-001_Horizontal" H 4300 6650 50  0001 C CNN
F 3 "https://belfuse.com/resources/datasheets/stewartconnector/ds-stw-usb-2.0-and-3.0-connectors.pdf" H 4300 6650 50  0001 C CNN
	1    4150 6700
	-1   0    0    -1  
$EndComp
$Comp
L power:GND #PWR0145
U 1 1 5EA0A710
P 4200 7550
F 0 "#PWR0145" H 4200 7300 50  0001 C CNN
F 1 "GND" H 4205 7377 50  0000 C CNN
F 2 "" H 4200 7550 50  0001 C CNN
F 3 "" H 4200 7550 50  0001 C CNN
	1    4200 7550
	1    0    0    -1  
$EndComp
Text GLabel 3650 5550 1    50   Input ~ 0
5V
Wire Wire Line
	3500 5650 3650 5650
$Comp
L Device:C_Small C30
U 1 1 5EA1A7BB
P 3500 5850
F 0 "C30" H 3592 5896 20  0000 L TNN
F 1 "0.1uF" H 3592 5805 20  0000 L TNN
F 2 "Capacitor_SMD:C_0603_1608Metric_Pad1.05x0.95mm_HandSolder" H 3500 5850 50  0001 C CNN
F 3 "~" H 3500 5850 50  0001 C CNN
F 4 "C" H 3500 5850 50  0001 C CNN "Spice_Primitive"
F 5 "0.1u" H 3500 5850 50  0001 C CNN "Spice_Model"
F 6 "Y" H 3500 5850 50  0001 C CNN "Spice_Netlist_Enabled"
	1    3500 5850
	1    0    0    -1  
$EndComp
$Comp
L Device:C_Small C31
U 1 1 5EA1A7C4
P 3750 5850
F 0 "C31" H 3842 5896 20  0000 L TNN
F 1 "10uF" H 3842 5805 20  0000 L TNN
F 2 "Capacitor_SMD:C_0805_2012Metric_Pad1.15x1.40mm_HandSolder" H 3750 5850 50  0001 C CNN
F 3 "~" H 3750 5850 50  0001 C CNN
F 4 "C" H 3750 5850 50  0001 C CNN "Spice_Primitive"
F 5 "0.1u" H 3750 5850 50  0001 C CNN "Spice_Model"
F 6 "Y" H 3750 5850 50  0001 C CNN "Spice_Netlist_Enabled"
	1    3750 5850
	1    0    0    -1  
$EndComp
Wire Wire Line
	3750 5650 3750 5750
Wire Wire Line
	3750 6050 3750 5950
Wire Wire Line
	3500 5950 3500 6050
Wire Wire Line
	3500 5750 3500 5650
Wire Wire Line
	3650 5550 3650 5650
Connection ~ 3650 5650
Wire Wire Line
	3650 5650 3750 5650
$Comp
L power:GND #PWR0146
U 1 1 5EA236F9
P 3650 6150
F 0 "#PWR0146" H 3650 5900 50  0001 C CNN
F 1 "GND" H 3655 5977 50  0000 C CNN
F 2 "" H 3650 6150 50  0001 C CNN
F 3 "" H 3650 6150 50  0001 C CNN
	1    3650 6150
	1    0    0    -1  
$EndComp
Wire Wire Line
	3650 6150 3650 6050
Wire Wire Line
	3500 6050 3650 6050
Connection ~ 3650 6050
Wire Wire Line
	3650 6050 3750 6050
Text Label 3450 3200 2    50   ~ 0
USB_D+
Text Label 3450 3100 2    50   ~ 0
USB_D-
Text Label 2950 6800 2    50   ~ 0
USB_D-
Text Label 2950 6700 2    50   ~ 0
USB_D+
Wire Wire Line
	3850 6700 3750 6700
Text HLabel 3450 4800 2    50   Input ~ 0
SPI_NSS
Wire Wire Line
	3450 4800 3150 4800
$Comp
L Switch:SW_SPST SW2
U 1 1 5EB3ADB4
P 8500 1500
F 0 "SW2" H 8500 1600 50  0000 C CNN
F 1 "SW_SPST" H 8500 1400 50  0000 C CNN
F 2 "newLib:rubberbtn" H 8500 1500 50  0001 C CNN
F 3 "~" H 8500 1500 50  0001 C CNN
	1    8500 1500
	0    -1   -1   0   
$EndComp
$Comp
L power:GND #PWR0147
U 1 1 5EB42804
P 8500 2200
F 0 "#PWR0147" H 8500 1950 50  0001 C CNN
F 1 "GND" H 8505 2027 50  0000 C CNN
F 2 "" H 8500 2200 50  0001 C CNN
F 3 "" H 8500 2200 50  0001 C CNN
	1    8500 2200
	1    0    0    -1  
$EndComp
Text GLabel 8500 1100 1    50   Input ~ 0
+3.3V
$Comp
L Device:R_Small R28
U 1 1 5EB4C9B3
P 8500 1900
F 0 "R28" V 8600 1850 50  0000 L CNN
F 1 "4.7k" V 8400 1800 50  0000 L CNN
F 2 "Resistor_SMD:R_0603_1608Metric_Pad1.05x0.95mm_HandSolder" H 8500 1900 50  0001 C CNN
F 3 "~" H 8500 1900 50  0001 C CNN
	1    8500 1900
	1    0    0    -1  
$EndComp
Wire Wire Line
	8500 1100 8500 1300
Wire Wire Line
	8500 1700 8500 1750
Wire Wire Line
	8500 2000 8500 2200
Text Label 8650 1750 0    50   ~ 0
BTN_UP
Wire Wire Line
	8500 1750 8650 1750
Connection ~ 8500 1750
Wire Wire Line
	8500 1750 8500 1800
$Comp
L Switch:SW_SPST SW5
U 1 1 5EB7BD84
P 9200 1500
F 0 "SW5" H 9200 1600 50  0000 C CNN
F 1 "SW_SPST" H 9200 1400 50  0000 C CNN
F 2 "newLib:rubberbtn" H 9200 1500 50  0001 C CNN
F 3 "~" H 9200 1500 50  0001 C CNN
	1    9200 1500
	0    -1   -1   0   
$EndComp
$Comp
L power:GND #PWR0148
U 1 1 5EB7BD8A
P 9200 2200
F 0 "#PWR0148" H 9200 1950 50  0001 C CNN
F 1 "GND" H 9205 2027 50  0000 C CNN
F 2 "" H 9200 2200 50  0001 C CNN
F 3 "" H 9200 2200 50  0001 C CNN
	1    9200 2200
	1    0    0    -1  
$EndComp
Text GLabel 9200 1100 1    50   Input ~ 0
+3.3V
Wire Wire Line
	9200 1100 9200 1300
Wire Wire Line
	9200 1700 9200 1750
Wire Wire Line
	9200 2000 9200 2200
Text Label 9350 1750 0    50   ~ 0
BTN_DW
Wire Wire Line
	9200 1750 9350 1750
Connection ~ 9200 1750
Wire Wire Line
	9200 1750 9200 1800
$Comp
L Switch:SW_SPST SW8
U 1 1 5EB91EED
P 9900 1450
F 0 "SW8" H 9900 1550 50  0000 C CNN
F 1 "SW_SPST" H 9900 1350 50  0000 C CNN
F 2 "newLib:rubberbtn" H 9900 1450 50  0001 C CNN
F 3 "~" H 9900 1450 50  0001 C CNN
	1    9900 1450
	0    -1   -1   0   
$EndComp
$Comp
L power:GND #PWR0149
U 1 1 5EB91EF3
P 9900 2150
F 0 "#PWR0149" H 9900 1900 50  0001 C CNN
F 1 "GND" H 9905 1977 50  0000 C CNN
F 2 "" H 9900 2150 50  0001 C CNN
F 3 "" H 9900 2150 50  0001 C CNN
	1    9900 2150
	1    0    0    -1  
$EndComp
Text GLabel 9900 1050 1    50   Input ~ 0
+3.3V
Wire Wire Line
	9900 1050 9900 1250
Wire Wire Line
	9900 1650 9900 1700
Wire Wire Line
	9900 1950 9900 2150
Text Label 10050 1700 0    50   ~ 0
BTN_LF
Wire Wire Line
	9900 1700 10050 1700
Connection ~ 9900 1700
Wire Wire Line
	9900 1700 9900 1750
$Comp
L Switch:SW_SPST SW11
U 1 1 5EB91F07
P 10550 1450
F 0 "SW11" H 10550 1550 50  0000 C CNN
F 1 "SW_SPST" H 10550 1350 50  0000 C CNN
F 2 "newLib:rubberbtn" H 10550 1450 50  0001 C CNN
F 3 "~" H 10550 1450 50  0001 C CNN
	1    10550 1450
	0    -1   -1   0   
$EndComp
$Comp
L power:GND #PWR0150
U 1 1 5EB91F0D
P 10550 2150
F 0 "#PWR0150" H 10550 1900 50  0001 C CNN
F 1 "GND" H 10555 1977 50  0000 C CNN
F 2 "" H 10550 2150 50  0001 C CNN
F 3 "" H 10550 2150 50  0001 C CNN
	1    10550 2150
	1    0    0    -1  
$EndComp
Text GLabel 10550 1050 1    50   Input ~ 0
+3.3V
Wire Wire Line
	10550 1050 10550 1250
Wire Wire Line
	10550 1650 10550 1700
Wire Wire Line
	10550 1950 10550 2150
Text Label 10700 1700 0    50   ~ 0
BTN_RG
Wire Wire Line
	10550 1700 10700 1700
Connection ~ 10550 1700
Wire Wire Line
	10550 1700 10550 1750
$Comp
L Switch:SW_SPST SW3
U 1 1 5EB98260
P 8500 3300
F 0 "SW3" H 8500 3400 50  0000 C CNN
F 1 "SW_SPST" H 8500 3200 50  0000 C CNN
F 2 "newLib:rubberbtn" H 8500 3300 50  0001 C CNN
F 3 "~" H 8500 3300 50  0001 C CNN
	1    8500 3300
	0    -1   -1   0   
$EndComp
$Comp
L power:GND #PWR0151
U 1 1 5EB98266
P 8500 4000
F 0 "#PWR0151" H 8500 3750 50  0001 C CNN
F 1 "GND" H 8505 3827 50  0000 C CNN
F 2 "" H 8500 4000 50  0001 C CNN
F 3 "" H 8500 4000 50  0001 C CNN
	1    8500 4000
	1    0    0    -1  
$EndComp
Text GLabel 8500 2900 1    50   Input ~ 0
+3.3V
Wire Wire Line
	8500 2900 8500 3100
Wire Wire Line
	8500 3500 8500 3550
Wire Wire Line
	8500 3800 8500 4000
Text Label 8650 3550 0    50   ~ 0
BTN_A
Wire Wire Line
	8500 3550 8650 3550
Connection ~ 8500 3550
Wire Wire Line
	8500 3550 8500 3600
$Comp
L Switch:SW_SPST SW6
U 1 1 5EB9827A
P 9200 3300
F 0 "SW6" H 9200 3400 50  0000 C CNN
F 1 "SW_SPST" H 9200 3200 50  0000 C CNN
F 2 "newLib:rubberbtn" H 9200 3300 50  0001 C CNN
F 3 "~" H 9200 3300 50  0001 C CNN
	1    9200 3300
	0    -1   -1   0   
$EndComp
$Comp
L power:GND #PWR0152
U 1 1 5EB98280
P 9200 4000
F 0 "#PWR0152" H 9200 3750 50  0001 C CNN
F 1 "GND" H 9205 3827 50  0000 C CNN
F 2 "" H 9200 4000 50  0001 C CNN
F 3 "" H 9200 4000 50  0001 C CNN
	1    9200 4000
	1    0    0    -1  
$EndComp
Text GLabel 9200 2900 1    50   Input ~ 0
+3.3V
Wire Wire Line
	9200 2900 9200 3100
Wire Wire Line
	9200 3500 9200 3550
Wire Wire Line
	9200 3800 9200 4000
Text Label 9350 3550 0    50   ~ 0
BTN_B
Wire Wire Line
	9200 3550 9350 3550
Connection ~ 9200 3550
Wire Wire Line
	9200 3550 9200 3600
$Comp
L Switch:SW_SPST SW9
U 1 1 5EB9D3E3
P 9900 3250
F 0 "SW9" H 9900 3350 50  0000 C CNN
F 1 "SW_SPST" H 9900 3150 50  0000 C CNN
F 2 "newLib:rubberbtn" H 9900 3250 50  0001 C CNN
F 3 "~" H 9900 3250 50  0001 C CNN
	1    9900 3250
	0    -1   -1   0   
$EndComp
$Comp
L power:GND #PWR0153
U 1 1 5EB9D3E9
P 9900 3950
F 0 "#PWR0153" H 9900 3700 50  0001 C CNN
F 1 "GND" H 9905 3777 50  0000 C CNN
F 2 "" H 9900 3950 50  0001 C CNN
F 3 "" H 9900 3950 50  0001 C CNN
	1    9900 3950
	1    0    0    -1  
$EndComp
Text GLabel 9900 2850 1    50   Input ~ 0
+3.3V
Wire Wire Line
	9900 2850 9900 3050
Wire Wire Line
	9900 3450 9900 3500
Wire Wire Line
	9900 3750 9900 3950
Text Label 10050 3500 0    50   ~ 0
BTN_X
Wire Wire Line
	9900 3500 10050 3500
Connection ~ 9900 3500
Wire Wire Line
	9900 3500 9900 3550
$Comp
L Switch:SW_SPST SW12
U 1 1 5EB9D3FD
P 10550 3250
F 0 "SW12" H 10550 3350 50  0000 C CNN
F 1 "SW_SPST" H 10550 3150 50  0000 C CNN
F 2 "newLib:rubberbtn" H 10550 3250 50  0001 C CNN
F 3 "~" H 10550 3250 50  0001 C CNN
	1    10550 3250
	0    -1   -1   0   
$EndComp
$Comp
L power:GND #PWR0154
U 1 1 5EB9D403
P 10550 3950
F 0 "#PWR0154" H 10550 3700 50  0001 C CNN
F 1 "GND" H 10555 3777 50  0000 C CNN
F 2 "" H 10550 3950 50  0001 C CNN
F 3 "" H 10550 3950 50  0001 C CNN
	1    10550 3950
	1    0    0    -1  
$EndComp
Text GLabel 10550 2850 1    50   Input ~ 0
+3.3V
Wire Wire Line
	10550 2850 10550 3050
Wire Wire Line
	10550 3450 10550 3500
Wire Wire Line
	10550 3750 10550 3950
Text Label 10700 3500 0    50   ~ 0
BTN_Y
Wire Wire Line
	10550 3500 10700 3500
Connection ~ 10550 3500
Wire Wire Line
	10550 3500 10550 3550
$Comp
L Switch:SW_SPST SW4
U 1 1 5EBA5160
P 8500 5200
F 0 "SW4" H 8500 5300 50  0000 C CNN
F 1 "SW_SPST" H 8500 5100 50  0000 C CNN
F 2 "newLib:KSS331GLFS" H 8500 5200 50  0001 C CNN
F 3 "~" H 8500 5200 50  0001 C CNN
	1    8500 5200
	0    -1   -1   0   
$EndComp
$Comp
L power:GND #PWR0155
U 1 1 5EBA5166
P 8500 5900
F 0 "#PWR0155" H 8500 5650 50  0001 C CNN
F 1 "GND" H 8505 5727 50  0000 C CNN
F 2 "" H 8500 5900 50  0001 C CNN
F 3 "" H 8500 5900 50  0001 C CNN
	1    8500 5900
	1    0    0    -1  
$EndComp
Text GLabel 8500 4800 1    50   Input ~ 0
+3.3V
Wire Wire Line
	8500 4800 8500 5000
Wire Wire Line
	8500 5400 8500 5450
Wire Wire Line
	8500 5700 8500 5900
Text Label 8650 5450 0    50   ~ 0
BTN_L1
Wire Wire Line
	8500 5450 8650 5450
Connection ~ 8500 5450
Wire Wire Line
	8500 5450 8500 5500
$Comp
L Switch:SW_SPST SW7
U 1 1 5EBA517A
P 9200 5200
F 0 "SW7" H 9200 5300 50  0000 C CNN
F 1 "SW_SPST" H 9200 5100 50  0000 C CNN
F 2 "newLib:KSS331GLFS" H 9200 5200 50  0001 C CNN
F 3 "~" H 9200 5200 50  0001 C CNN
	1    9200 5200
	0    -1   -1   0   
$EndComp
$Comp
L power:GND #PWR0156
U 1 1 5EBA5180
P 9200 5900
F 0 "#PWR0156" H 9200 5650 50  0001 C CNN
F 1 "GND" H 9205 5727 50  0000 C CNN
F 2 "" H 9200 5900 50  0001 C CNN
F 3 "" H 9200 5900 50  0001 C CNN
	1    9200 5900
	1    0    0    -1  
$EndComp
Text GLabel 9200 4800 1    50   Input ~ 0
+3.3V
Wire Wire Line
	9200 4800 9200 5000
Wire Wire Line
	9200 5400 9200 5450
Wire Wire Line
	9200 5700 9200 5900
Text Label 9350 5450 0    50   ~ 0
BTN_R1
Wire Wire Line
	9200 5450 9350 5450
Connection ~ 9200 5450
Wire Wire Line
	9200 5450 9200 5500
$Comp
L Switch:SW_SPST SW10
U 1 1 5EBAD732
P 9900 5150
F 0 "SW10" H 9900 5250 50  0000 C CNN
F 1 "SW_SPST" H 9900 5050 50  0000 C CNN
F 2 "newLib:rubberbtn" H 9900 5150 50  0001 C CNN
F 3 "~" H 9900 5150 50  0001 C CNN
	1    9900 5150
	0    -1   -1   0   
$EndComp
$Comp
L power:GND #PWR0157
U 1 1 5EBAD738
P 9900 5850
F 0 "#PWR0157" H 9900 5600 50  0001 C CNN
F 1 "GND" H 9905 5677 50  0000 C CNN
F 2 "" H 9900 5850 50  0001 C CNN
F 3 "" H 9900 5850 50  0001 C CNN
	1    9900 5850
	1    0    0    -1  
$EndComp
Text GLabel 9900 4750 1    50   Input ~ 0
+3.3V
Wire Wire Line
	9900 4750 9900 4950
Wire Wire Line
	9900 5350 9900 5400
Wire Wire Line
	9900 5650 9900 5850
Text Label 10050 5400 0    50   ~ 0
BTN_ST
Wire Wire Line
	9900 5400 10050 5400
Connection ~ 9900 5400
Wire Wire Line
	9900 5400 9900 5450
$Comp
L Switch:SW_SPST SW13
U 1 1 5EBAD74C
P 10550 5150
F 0 "SW13" H 10550 5250 50  0000 C CNN
F 1 "SW_SPST" H 10550 5050 50  0000 C CNN
F 2 "newLib:rubberbtn" H 10550 5150 50  0001 C CNN
F 3 "~" H 10550 5150 50  0001 C CNN
	1    10550 5150
	0    -1   -1   0   
$EndComp
$Comp
L power:GND #PWR0158
U 1 1 5EBAD752
P 10550 5850
F 0 "#PWR0158" H 10550 5600 50  0001 C CNN
F 1 "GND" H 10555 5677 50  0000 C CNN
F 2 "" H 10550 5850 50  0001 C CNN
F 3 "" H 10550 5850 50  0001 C CNN
	1    10550 5850
	1    0    0    -1  
$EndComp
Text GLabel 10550 4750 1    50   Input ~ 0
+3.3V
Wire Wire Line
	10550 4750 10550 4950
Wire Wire Line
	10550 5350 10550 5400
Wire Wire Line
	10550 5650 10550 5850
Text Label 10700 5400 0    50   ~ 0
BTN_SL
Wire Wire Line
	10550 5400 10700 5400
Connection ~ 10550 5400
Wire Wire Line
	10550 5400 10550 5450
Text Label 1450 4900 0    50   ~ 0
BTN_UP
Text Label 1450 5000 0    50   ~ 0
BTN_DW
Text Label 1450 5100 0    50   ~ 0
BTN_LF
Text Label 1450 3600 0    50   ~ 0
BTN_RG
Text Label 3750 9200 0    50   ~ 0
SL
Text Label 3450 4600 2    50   ~ 0
BTN_SL
Text Label 3450 3000 2    50   ~ 0
BTN_ST
Text Label 3450 2900 2    50   ~ 0
BTN_R1
Text Label 3450 4500 2    50   ~ 0
BTN_L1
Text Label 3450 2800 2    50   ~ 0
BTN_Y
Text Label 1450 4500 0    50   ~ 0
BTN_X
Text Label 1450 4400 0    50   ~ 0
BTN_B
Text Label 1450 4300 0    50   ~ 0
BTN_A
Wire Wire Line
	1450 3600 1750 3600
Wire Wire Line
	1450 4900 1750 4900
Wire Wire Line
	1750 5000 1450 5000
Wire Wire Line
	1450 5100 1750 5100
Wire Wire Line
	3150 4500 3450 4500
Wire Wire Line
	3450 4600 3150 4600
Wire Wire Line
	1450 4300 1750 4300
Wire Wire Line
	1750 4400 1450 4400
Wire Wire Line
	1750 4500 1450 4500
Wire Wire Line
	3150 3000 3450 3000
Wire Wire Line
	3450 2900 3150 2900
Wire Wire Line
	3450 2800 3150 2800
$Comp
L Device:L_Small L4
U 1 1 5ED7EB21
P 2650 5500
F 0 "L4" H 2698 5546 50  0000 L CNN
F 1 "L_Small" H 2698 5455 50  0000 L CNN
F 2 "Inductor_SMD:L_0603_1608Metric_Pad1.05x0.95mm_HandSolder" H 2650 5500 50  0001 C CNN
F 3 "https://www.murata.com/en-us/products/productdata/8796738650142/ENFA0003.pdf" H 2650 5500 50  0001 C CNN
	1    2650 5500
	1    0    0    -1  
$EndComp
$Comp
L Device:L_Small L6
U 1 1 5ED7FA4D
P 3250 1050
F 0 "L6" H 3298 1096 50  0000 L CNN
F 1 "L_Small" H 3298 1005 50  0000 L CNN
F 2 "Inductor_SMD:L_0603_1608Metric_Pad1.05x0.95mm_HandSolder" H 3250 1050 50  0001 C CNN
F 3 "https://www.murata.com/en-us/products/productdata/8796738650142/ENFA0003.pdf" H 3250 1050 50  0001 C CNN
	1    3250 1050
	1    0    0    -1  
$EndComp
Text GLabel 3250 900  1    50   Input ~ 0
+3.3V
Wire Wire Line
	3250 900  3250 950 
$Comp
L Device:C_Small C28
U 1 1 5ED9D138
P 3100 1350
F 0 "C28" H 3192 1396 20  0000 L TNN
F 1 "0.1uF" H 3192 1305 20  0000 L TNN
F 2 "Capacitor_SMD:C_0603_1608Metric_Pad1.05x0.95mm_HandSolder" H 3100 1350 50  0001 C CNN
F 3 "~" H 3100 1350 50  0001 C CNN
F 4 "C" H 3100 1350 50  0001 C CNN "Spice_Primitive"
F 5 "0.1u" H 3100 1350 50  0001 C CNN "Spice_Model"
F 6 "Y" H 3100 1350 50  0001 C CNN "Spice_Netlist_Enabled"
	1    3100 1350
	1    0    0    -1  
$EndComp
$Comp
L Device:C_Small C29
U 1 1 5ED9D141
P 3350 1350
F 0 "C29" H 3442 1396 20  0000 L TNN
F 1 "1uF" H 3442 1305 20  0000 L TNN
F 2 "Capacitor_SMD:C_0805_2012Metric_Pad1.15x1.40mm_HandSolder" H 3350 1350 50  0001 C CNN
F 3 "~" H 3350 1350 50  0001 C CNN
F 4 "C" H 3350 1350 50  0001 C CNN "Spice_Primitive"
F 5 "0.1u" H 3350 1350 50  0001 C CNN "Spice_Model"
F 6 "Y" H 3350 1350 50  0001 C CNN "Spice_Netlist_Enabled"
	1    3350 1350
	1    0    0    -1  
$EndComp
Wire Wire Line
	3100 1250 3100 1150
Wire Wire Line
	3100 1150 3250 1150
$Comp
L power:GND #PWR0159
U 1 1 5EDDD0CC
P 3250 1600
F 0 "#PWR0159" H 3250 1350 50  0001 C CNN
F 1 "GND" H 3255 1427 50  0000 C CNN
F 2 "" H 3250 1600 50  0001 C CNN
F 3 "" H 3250 1600 50  0001 C CNN
	1    3250 1600
	1    0    0    -1  
$EndComp
$Comp
L power:GND #PWR0160
U 1 1 5EDE62D0
P 2650 5700
F 0 "#PWR0160" H 2650 5450 50  0001 C CNN
F 1 "GND" H 2655 5527 50  0000 C CNN
F 2 "" H 2650 5700 50  0001 C CNN
F 3 "" H 2650 5700 50  0001 C CNN
	1    2650 5700
	1    0    0    -1  
$EndComp
Connection ~ 3250 1150
Wire Wire Line
	3250 1150 3350 1150
Wire Wire Line
	3350 1150 3350 1250
Wire Wire Line
	3100 1450 3100 1500
Wire Wire Line
	3100 1500 3250 1500
Wire Wire Line
	3350 1500 3350 1450
Wire Wire Line
	3250 1600 3250 1500
Connection ~ 3250 1500
Wire Wire Line
	3250 1500 3350 1500
Wire Wire Line
	2750 1800 2750 1150
Wire Wire Line
	2750 1150 3100 1150
Connection ~ 3100 1150
Wire Wire Line
	2650 5300 2650 5400
Wire Wire Line
	2650 5600 2650 5700
Wire Wire Line
	2350 5350 2400 5350
Wire Wire Line
	2400 5350 2400 5550
Connection ~ 2400 5350
Wire Wire Line
	2400 5350 2450 5350
$Comp
L power:GND #PWR0161
U 1 1 5EEA3B84
P 1550 7250
F 0 "#PWR0161" H 1550 7000 50  0001 C CNN
F 1 "GND" H 1555 7077 50  0000 C CNN
F 2 "" H 1550 7250 50  0001 C CNN
F 3 "" H 1550 7250 50  0001 C CNN
	1    1550 7250
	1    0    0    -1  
$EndComp
$Comp
L Device:C_Small C27
U 1 1 5EED17C5
P 1800 6950
F 0 "C27" H 1892 6996 50  0000 L TNN
F 1 "10p" H 1892 6905 50  0000 L TNN
F 2 "Capacitor_SMD:C_0603_1608Metric_Pad1.05x0.95mm_HandSolder" H 1800 6950 50  0001 C CNN
F 3 "~" H 1800 6950 50  0001 C CNN
F 4 "C" H 1800 6950 50  0001 C CNN "Spice_Primitive"
F 5 "10p" H 1800 6950 50  0001 C CNN "Spice_Model"
F 6 "Y" H 1800 6950 50  0001 C CNN "Spice_Netlist_Enabled"
	1    1800 6950
	1    0    0    -1  
$EndComp
$Comp
L Device:C_Small C26
U 1 1 5EED17CE
P 1300 6950
F 0 "C26" H 1392 6996 50  0000 L TNN
F 1 "10p" H 1392 6905 50  0000 L TNN
F 2 "Capacitor_SMD:C_0603_1608Metric_Pad1.05x0.95mm_HandSolder" H 1300 6950 50  0001 C CNN
F 3 "~" H 1300 6950 50  0001 C CNN
F 4 "C" H 1300 6950 50  0001 C CNN "Spice_Primitive"
F 5 "10p" H 1300 6950 50  0001 C CNN "Spice_Model"
F 6 "Y" H 1300 6950 50  0001 C CNN "Spice_Netlist_Enabled"
	1    1300 6950
	1    0    0    -1  
$EndComp
Wire Wire Line
	1300 7050 1300 7150
Wire Wire Line
	1300 7150 1550 7150
Wire Wire Line
	1800 7150 1800 7050
Connection ~ 1550 7150
Wire Wire Line
	1550 7150 1800 7150
Wire Wire Line
	1550 7150 1550 7250
Wire Wire Line
	1450 6650 1300 6650
Wire Wire Line
	1300 6650 1300 6850
Wire Wire Line
	1650 6650 1800 6650
Wire Wire Line
	1800 6650 1800 6850
Text Label 1000 6650 0    50   ~ 0
OSC_IN
Text Label 2100 6650 2    50   ~ 0
OSC_OUT
Wire Wire Line
	1000 6650 1300 6650
Wire Wire Line
	2100 6650 1800 6650
Connection ~ 1300 6650
Connection ~ 1800 6650
Text HLabel 1400 2000 0    50   Input ~ 0
STM_NRST
Text HLabel 1400 2200 0    50   Input ~ 0
STM_BOOT0
$Comp
L Device:C_Small C37
U 1 1 5EFD6E2F
P 6000 1250
F 0 "C37" H 6092 1296 20  0000 L TNN
F 1 "0.1uF" H 6092 1205 20  0000 L TNN
F 2 "Capacitor_SMD:C_0603_1608Metric_Pad1.05x0.95mm_HandSolder" H 6000 1250 50  0001 C CNN
F 3 "~" H 6000 1250 50  0001 C CNN
F 4 "C" H 6000 1250 50  0001 C CNN "Spice_Primitive"
F 5 "0.1u" H 6000 1250 50  0001 C CNN "Spice_Model"
F 6 "Y" H 6000 1250 50  0001 C CNN "Spice_Netlist_Enabled"
	1    6000 1250
	1    0    0    -1  
$EndComp
$Comp
L Device:C_Small C38
U 1 1 5EFD6E38
P 6250 1250
F 0 "C38" H 6342 1296 20  0000 L TNN
F 1 "0.1uF" H 6342 1205 20  0000 L TNN
F 2 "Capacitor_SMD:C_0603_1608Metric_Pad1.05x0.95mm_HandSolder" H 6250 1250 50  0001 C CNN
F 3 "~" H 6250 1250 50  0001 C CNN
F 4 "C" H 6250 1250 50  0001 C CNN "Spice_Primitive"
F 5 "0.1u" H 6250 1250 50  0001 C CNN "Spice_Model"
F 6 "Y" H 6250 1250 50  0001 C CNN "Spice_Netlist_Enabled"
	1    6250 1250
	1    0    0    -1  
$EndComp
Wire Wire Line
	6000 1150 6000 1050
Wire Wire Line
	6000 1050 6250 1050
Wire Wire Line
	6000 1350 6000 1450
Wire Wire Line
	6000 1450 6250 1450
Wire Wire Line
	6250 1350 6250 1450
Connection ~ 6250 1450
Wire Wire Line
	6250 1450 6500 1450
Wire Wire Line
	6250 1150 6250 1050
Connection ~ 6250 1050
Wire Wire Line
	6250 1050 6500 1050
Connection ~ 6500 1050
Connection ~ 6500 1450
$Comp
L Device:C_Small C35
U 1 1 5EFE8EB1
P 5500 1250
F 0 "C35" H 5592 1296 20  0000 L TNN
F 1 "0.1uF" H 5592 1205 20  0000 L TNN
F 2 "Capacitor_SMD:C_0603_1608Metric_Pad1.05x0.95mm_HandSolder" H 5500 1250 50  0001 C CNN
F 3 "~" H 5500 1250 50  0001 C CNN
F 4 "C" H 5500 1250 50  0001 C CNN "Spice_Primitive"
F 5 "0.1u" H 5500 1250 50  0001 C CNN "Spice_Model"
F 6 "Y" H 5500 1250 50  0001 C CNN "Spice_Netlist_Enabled"
	1    5500 1250
	1    0    0    -1  
$EndComp
$Comp
L Device:C_Small C36
U 1 1 5EFE8EBA
P 5750 1250
F 0 "C36" H 5842 1296 20  0000 L TNN
F 1 "0.1uF" H 5842 1205 20  0000 L TNN
F 2 "Capacitor_SMD:C_0603_1608Metric_Pad1.05x0.95mm_HandSolder" H 5750 1250 50  0001 C CNN
F 3 "~" H 5750 1250 50  0001 C CNN
F 4 "C" H 5750 1250 50  0001 C CNN "Spice_Primitive"
F 5 "0.1u" H 5750 1250 50  0001 C CNN "Spice_Model"
F 6 "Y" H 5750 1250 50  0001 C CNN "Spice_Netlist_Enabled"
	1    5750 1250
	1    0    0    -1  
$EndComp
Wire Wire Line
	5500 1150 5500 1050
Wire Wire Line
	5500 1050 5750 1050
Wire Wire Line
	5500 1350 5500 1450
Wire Wire Line
	5500 1450 5750 1450
Wire Wire Line
	5750 1350 5750 1450
Connection ~ 5750 1450
Wire Wire Line
	5750 1450 6000 1450
Wire Wire Line
	5750 1150 5750 1050
Connection ~ 5750 1050
Wire Wire Line
	5750 1050 6000 1050
$Comp
L Device:C_Small C33
U 1 1 5EFE8ECD
P 5000 1250
F 0 "C33" H 5092 1296 20  0000 L TNN
F 1 "0.1uF" H 5092 1205 20  0000 L TNN
F 2 "Capacitor_SMD:C_0603_1608Metric_Pad1.05x0.95mm_HandSolder" H 5000 1250 50  0001 C CNN
F 3 "~" H 5000 1250 50  0001 C CNN
F 4 "C" H 5000 1250 50  0001 C CNN "Spice_Primitive"
F 5 "0.1u" H 5000 1250 50  0001 C CNN "Spice_Model"
F 6 "Y" H 5000 1250 50  0001 C CNN "Spice_Netlist_Enabled"
	1    5000 1250
	1    0    0    -1  
$EndComp
$Comp
L Device:C_Small C34
U 1 1 5EFE8ED6
P 5250 1250
F 0 "C34" H 5342 1296 20  0000 L TNN
F 1 "0.1uF" H 5342 1205 20  0000 L TNN
F 2 "Capacitor_SMD:C_0603_1608Metric_Pad1.05x0.95mm_HandSolder" H 5250 1250 50  0001 C CNN
F 3 "~" H 5250 1250 50  0001 C CNN
F 4 "C" H 5250 1250 50  0001 C CNN "Spice_Primitive"
F 5 "0.1u" H 5250 1250 50  0001 C CNN "Spice_Model"
F 6 "Y" H 5250 1250 50  0001 C CNN "Spice_Netlist_Enabled"
	1    5250 1250
	1    0    0    -1  
$EndComp
Wire Wire Line
	5000 1150 5000 1050
Wire Wire Line
	5000 1050 5250 1050
Wire Wire Line
	5000 1350 5000 1450
Wire Wire Line
	5000 1450 5250 1450
Wire Wire Line
	5250 1350 5250 1450
Connection ~ 5250 1450
Wire Wire Line
	5250 1450 5500 1450
Wire Wire Line
	5250 1150 5250 1050
Connection ~ 5250 1050
Wire Wire Line
	5250 1050 5500 1050
Connection ~ 5500 1050
Connection ~ 5500 1450
Connection ~ 6000 1050
Connection ~ 6000 1450
$Comp
L Device:C_Small C32
U 1 1 5F007727
P 4750 1250
F 0 "C32" H 4842 1296 20  0000 L TNN
F 1 "0.1uF" H 4842 1205 20  0000 L TNN
F 2 "Capacitor_SMD:C_0603_1608Metric_Pad1.05x0.95mm_HandSolder" H 4750 1250 50  0001 C CNN
F 3 "~" H 4750 1250 50  0001 C CNN
F 4 "C" H 4750 1250 50  0001 C CNN "Spice_Primitive"
F 5 "0.1u" H 4750 1250 50  0001 C CNN "Spice_Model"
F 6 "Y" H 4750 1250 50  0001 C CNN "Spice_Netlist_Enabled"
	1    4750 1250
	1    0    0    -1  
$EndComp
Wire Wire Line
	4750 1150 4750 1050
Wire Wire Line
	4750 1050 5000 1050
Wire Wire Line
	4750 1350 4750 1450
Wire Wire Line
	4750 1450 5000 1450
Connection ~ 5000 1050
Connection ~ 5000 1450
$Comp
L Device:C_Small C24
U 1 1 5F0262CD
P 1000 2650
F 0 "C24" H 1092 2696 20  0000 L TNN
F 1 "2.2uF" H 1092 2605 20  0000 L TNN
F 2 "Capacitor_SMD:C_0805_2012Metric_Pad1.15x1.40mm_HandSolder" H 1000 2650 50  0001 C CNN
F 3 "~" H 1000 2650 50  0001 C CNN
F 4 "C" H 1000 2650 50  0001 C CNN "Spice_Primitive"
F 5 "0.1u" H 1000 2650 50  0001 C CNN "Spice_Model"
F 6 "Y" H 1000 2650 50  0001 C CNN "Spice_Netlist_Enabled"
	1    1000 2650
	1    0    0    -1  
$EndComp
$Comp
L Device:C_Small C25
U 1 1 5F0262D6
P 1250 2650
F 0 "C25" H 1342 2696 20  0000 L TNN
F 1 "2.2uF" H 1342 2605 20  0000 L TNN
F 2 "Capacitor_SMD:C_0805_2012Metric_Pad1.15x1.40mm_HandSolder" H 1250 2650 50  0001 C CNN
F 3 "~" H 1250 2650 50  0001 C CNN
F 4 "C" H 1250 2650 50  0001 C CNN "Spice_Primitive"
F 5 "0.1u" H 1250 2650 50  0001 C CNN "Spice_Model"
F 6 "Y" H 1250 2650 50  0001 C CNN "Spice_Netlist_Enabled"
	1    1250 2650
	1    0    0    -1  
$EndComp
$Comp
L power:GND #PWR0162
U 1 1 5F0262DD
P 1150 2900
F 0 "#PWR0162" H 1150 2650 50  0001 C CNN
F 1 "GND" H 1155 2727 50  0000 C CNN
F 2 "" H 1150 2900 50  0001 C CNN
F 3 "" H 1150 2900 50  0001 C CNN
	1    1150 2900
	1    0    0    -1  
$EndComp
Wire Wire Line
	1000 2750 1000 2800
Wire Wire Line
	1000 2800 1150 2800
Wire Wire Line
	1250 2800 1250 2750
Wire Wire Line
	1150 2900 1150 2800
Connection ~ 1150 2800
Wire Wire Line
	1150 2800 1250 2800
Wire Wire Line
	1750 2400 1250 2400
Wire Wire Line
	1000 2400 1000 2550
Wire Wire Line
	1250 2400 1250 2550
Connection ~ 1250 2400
Wire Wire Line
	1250 2400 1000 2400
Wire Wire Line
	1400 2000 1750 2000
Wire Wire Line
	1400 2200 1750 2200
Text Label 1450 3700 0    50   ~ 0
STM_LED
Wire Wire Line
	1450 3700 1750 3700
Text GLabel 4900 6850 1    50   Input ~ 0
+3.3V
Wire Wire Line
	4900 6850 4900 7050
Wire Wire Line
	4900 7050 5050 7050
Wire Wire Line
	5350 7050 5500 7050
Wire Wire Line
	5700 7050 6300 7050
Text Label 6300 7050 0    50   ~ 0
STM_LED
$Comp
L Device:Crystal_Small Y1
U 1 1 5EA4169A
P 1550 6650
F 0 "Y1" H 1550 6875 50  0000 C CNN
F 1 "ECS-250-20-5PXDU-F-TR 25MHz" H 1550 6784 50  0000 C CNN
F 2 "newLib:XTAL-11.5mmx4.8mmx4.3mm" H 1550 6650 50  0001 C CNN
F 3 "https://ecsxtal.com/store/pdf/CSM_7X_DU.pdf" H 1550 6650 50  0001 C CNN
	1    1550 6650
	1    0    0    -1  
$EndComp
Wire Wire Line
	3850 6500 3850 5650
Wire Wire Line
	3850 5650 3750 5650
Connection ~ 3750 5650
$Comp
L SRF2012-900YA:SRF2012-900YA L?
U 1 1 5EB6E8A9
P 3150 6700
AR Path="/5E85534A/5EB6E8A9" Ref="L?"  Part="1" 
AR Path="/5E934C03/5EB6E8A9" Ref="L5"  Part="1" 
F 0 "L5" H 3450 6939 60  0000 C CNN
F 1 "SRF2012-900YA" H 3450 6833 60  0000 C CNN
F 2 "newLib:SRF2012-900YA" H 3425 6415 60  0001 C CNN
F 3 "https://www.bourns.com/docs/Product-Datasheets/SRF2012A.pdf" H 3150 6700 60  0001 C CNN
	1    3150 6700
	1    0    0    -1  
$EndComp
Wire Wire Line
	2950 6700 3150 6700
$Comp
L Device:R_Small R31
U 1 1 5EBE38D2
P 9200 1900
F 0 "R31" V 9300 1850 50  0000 L CNN
F 1 "4.7k" V 9100 1800 50  0000 L CNN
F 2 "Resistor_SMD:R_0603_1608Metric_Pad1.05x0.95mm_HandSolder" H 9200 1900 50  0001 C CNN
F 3 "~" H 9200 1900 50  0001 C CNN
	1    9200 1900
	1    0    0    -1  
$EndComp
$Comp
L Device:R_Small R34
U 1 1 5EBF4BBF
P 9900 1850
F 0 "R34" V 10000 1800 50  0000 L CNN
F 1 "4.7k" V 9800 1750 50  0000 L CNN
F 2 "Resistor_SMD:R_0603_1608Metric_Pad1.05x0.95mm_HandSolder" H 9900 1850 50  0001 C CNN
F 3 "~" H 9900 1850 50  0001 C CNN
	1    9900 1850
	1    0    0    -1  
$EndComp
$Comp
L Device:R_Small R37
U 1 1 5EC05DF6
P 10550 1850
F 0 "R37" V 10650 1800 50  0000 L CNN
F 1 "4.7k" V 10450 1750 50  0000 L CNN
F 2 "Resistor_SMD:R_0603_1608Metric_Pad1.05x0.95mm_HandSolder" H 10550 1850 50  0001 C CNN
F 3 "~" H 10550 1850 50  0001 C CNN
	1    10550 1850
	1    0    0    -1  
$EndComp
$Comp
L Device:R_Small R29
U 1 1 5EC17132
P 8500 3700
F 0 "R29" V 8600 3650 50  0000 L CNN
F 1 "4.7k" V 8400 3600 50  0000 L CNN
F 2 "Resistor_SMD:R_0603_1608Metric_Pad1.05x0.95mm_HandSolder" H 8500 3700 50  0001 C CNN
F 3 "~" H 8500 3700 50  0001 C CNN
	1    8500 3700
	1    0    0    -1  
$EndComp
$Comp
L Device:R_Small R32
U 1 1 5EC394F7
P 9200 3700
F 0 "R32" V 9300 3650 50  0000 L CNN
F 1 "4.7k" V 9100 3600 50  0000 L CNN
F 2 "Resistor_SMD:R_0603_1608Metric_Pad1.05x0.95mm_HandSolder" H 9200 3700 50  0001 C CNN
F 3 "~" H 9200 3700 50  0001 C CNN
	1    9200 3700
	1    0    0    -1  
$EndComp
$Comp
L Device:R_Small R35
U 1 1 5EC4A76E
P 9900 3650
F 0 "R35" V 10000 3600 50  0000 L CNN
F 1 "4.7k" V 9800 3550 50  0000 L CNN
F 2 "Resistor_SMD:R_0603_1608Metric_Pad1.05x0.95mm_HandSolder" H 9900 3650 50  0001 C CNN
F 3 "~" H 9900 3650 50  0001 C CNN
	1    9900 3650
	1    0    0    -1  
$EndComp
$Comp
L Device:R_Small R38
U 1 1 5EC5B938
P 10550 3650
F 0 "R38" V 10650 3600 50  0000 L CNN
F 1 "4.7k" V 10450 3550 50  0000 L CNN
F 2 "Resistor_SMD:R_0603_1608Metric_Pad1.05x0.95mm_HandSolder" H 10550 3650 50  0001 C CNN
F 3 "~" H 10550 3650 50  0001 C CNN
	1    10550 3650
	1    0    0    -1  
$EndComp
$Comp
L Device:R_Small R30
U 1 1 5EC6D0F4
P 8500 5600
F 0 "R30" V 8600 5550 50  0000 L CNN
F 1 "4.7k" V 8400 5500 50  0000 L CNN
F 2 "Resistor_SMD:R_0603_1608Metric_Pad1.05x0.95mm_HandSolder" H 8500 5600 50  0001 C CNN
F 3 "~" H 8500 5600 50  0001 C CNN
	1    8500 5600
	1    0    0    -1  
$EndComp
$Comp
L Device:R_Small R33
U 1 1 5EC7E33C
P 9200 5600
F 0 "R33" V 9300 5550 50  0000 L CNN
F 1 "4.7k" V 9100 5500 50  0000 L CNN
F 2 "Resistor_SMD:R_0603_1608Metric_Pad1.05x0.95mm_HandSolder" H 9200 5600 50  0001 C CNN
F 3 "~" H 9200 5600 50  0001 C CNN
	1    9200 5600
	1    0    0    -1  
$EndComp
$Comp
L Device:R_Small R36
U 1 1 5EC8F59C
P 9900 5550
F 0 "R36" V 10000 5500 50  0000 L CNN
F 1 "4.7k" V 9800 5450 50  0000 L CNN
F 2 "Resistor_SMD:R_0603_1608Metric_Pad1.05x0.95mm_HandSolder" H 9900 5550 50  0001 C CNN
F 3 "~" H 9900 5550 50  0001 C CNN
	1    9900 5550
	1    0    0    -1  
$EndComp
$Comp
L Device:R_Small R39
U 1 1 5ECA0AAA
P 10550 5550
F 0 "R39" V 10650 5500 50  0000 L CNN
F 1 "4.7k" V 10450 5450 50  0000 L CNN
F 2 "Resistor_SMD:R_0603_1608Metric_Pad1.05x0.95mm_HandSolder" H 10550 5550 50  0001 C CNN
F 3 "~" H 10550 5550 50  0001 C CNN
	1    10550 5550
	1    0    0    -1  
$EndComp
$Comp
L Device:R_Small R27
U 1 1 5ECC2EBD
P 5600 7050
F 0 "R27" V 5700 7000 50  0000 L CNN
F 1 "4.7k" V 5500 6950 50  0000 L CNN
F 2 "Resistor_SMD:R_0603_1608Metric_Pad1.05x0.95mm_HandSolder" H 5600 7050 50  0001 C CNN
F 3 "~" H 5600 7050 50  0001 C CNN
	1    5600 7050
	0    -1   -1   0   
$EndComp
NoConn ~ 1750 4600
NoConn ~ 3150 4200
NoConn ~ 3150 3800
NoConn ~ 3150 3900
NoConn ~ 3150 2600
NoConn ~ 3150 2700
NoConn ~ 3150 4900
$Comp
L ConectorIli9486:4-1734592-0 J?
U 1 1 5EBB65C7
P 6450 2150
AR Path="/5EBB65C7" Ref="J?"  Part="1" 
AR Path="/5E934C03/5EBB65C7" Ref="J4"  Part="1" 
F 0 "J4" H 6978 253 60  0000 L CNN
F 1 "4-1734592-0" V 7250 -50 60  0000 L CNN
F 2 "newLib:4-1734592-0" H 6850 90  60  0001 C CNN
F 3 "https://www.te.com/commerce/DocumentDelivery/DDEController?Action=srchrtrv&DocNm=1734592&DocType=Customer+Drawing&DocLang=English" H 6978 94  60  0001 L CNN
F 4 "https://es.aliexpress.com/item/32680647050.html?spm=a219c.search0302.3.50.3ec75013KusdnU&ws_ab_test=searchweb0_0,searchweb201602_0,searchweb201603_0,ppcSwitch_0&algo_pvid=6387eda7-f89a-4b20-a7e3-b6bc06a94f57&algo_expid=6387eda7-f89a-4b20-a7e3-b6bc06a94f57-7" H 6450 2150 50  0001 C CNN "Comprar"
	1    6450 2150
	1    0    0    -1  
$EndComp
$Comp
L Device:R_Small R45
U 1 1 5EBB4A2A
P 5600 4600
F 0 "R45" V 5700 4550 50  0000 L CNN
F 1 "10k" V 5500 4500 50  0000 L CNN
F 2 "Resistor_SMD:R_0603_1608Metric_Pad1.05x0.95mm_HandSolder" H 5600 4600 50  0001 C CNN
F 3 "~" H 5600 4600 50  0001 C CNN
	1    5600 4600
	1    0    0    -1  
$EndComp
$Comp
L power:GND #PWR02
U 1 1 5EBFD83A
P 5600 4800
F 0 "#PWR02" H 5600 4550 50  0001 C CNN
F 1 "GND" H 5605 4627 50  0000 C CNN
F 2 "" H 5600 4800 50  0001 C CNN
F 3 "" H 5600 4800 50  0001 C CNN
	1    5600 4800
	1    0    0    -1  
$EndComp
Text GLabel 5300 3100 1    50   Input ~ 0
+3.3V
$Comp
L Device:R_Small R42
U 1 1 5EC31EE2
P 5200 3400
F 0 "R42" H 5200 3250 50  0000 L CNN
F 1 "10k" H 5200 3550 50  0000 L CNN
F 2 "Resistor_SMD:R_0603_1608Metric_Pad1.05x0.95mm_HandSolder" H 5200 3400 50  0001 C CNN
F 3 "~" H 5200 3400 50  0001 C CNN
	1    5200 3400
	1    0    0    -1  
$EndComp
$Comp
L Device:R_Small R44
U 1 1 5EC43649
P 5400 3400
F 0 "R44" H 5400 3250 50  0000 L CNN
F 1 "10k" H 5400 3550 50  0000 L CNN
F 2 "Resistor_SMD:R_0603_1608Metric_Pad1.05x0.95mm_HandSolder" H 5400 3400 50  0001 C CNN
F 3 "~" H 5400 3400 50  0001 C CNN
	1    5400 3400
	1    0    0    -1  
$EndComp
Wire Wire Line
	5400 3300 5400 3200
Wire Wire Line
	5400 3200 5300 3200
Wire Wire Line
	5200 3200 5200 3300
Wire Wire Line
	5300 3100 5300 3200
Connection ~ 5300 3200
Wire Wire Line
	5300 3200 5200 3200
Wire Wire Line
	5600 4400 5600 4500
Wire Wire Line
	5600 4700 5600 4800
$Comp
L Device:R_Small R43
U 1 1 5ED255B9
P 5250 4550
F 0 "R43" H 5150 4400 50  0000 L CNN
F 1 "3.3k" H 5250 4700 50  0000 L CNN
F 2 "Resistor_SMD:R_0603_1608Metric_Pad1.05x0.95mm_HandSolder" H 5250 4550 50  0001 C CNN
F 3 "~" H 5250 4550 50  0001 C CNN
	1    5250 4550
	-1   0    0    1   
$EndComp
$Comp
L Device:R_Small R41
U 1 1 5ED255BF
P 5050 4550
F 0 "R41" H 4950 4400 50  0000 L CNN
F 1 "3.3k" H 5050 4700 50  0000 L CNN
F 2 "Resistor_SMD:R_0603_1608Metric_Pad1.05x0.95mm_HandSolder" H 5050 4550 50  0001 C CNN
F 3 "~" H 5050 4550 50  0001 C CNN
	1    5050 4550
	-1   0    0    1   
$EndComp
Wire Wire Line
	5050 4650 5050 4750
Wire Wire Line
	5250 4750 5250 4650
Wire Wire Line
	5050 4850 5050 4750
$Comp
L Device:R_Small R40
U 1 1 5ED39C08
P 4850 4550
F 0 "R40" H 4750 4400 50  0000 L CNN
F 1 "3.3k" H 4850 4700 50  0000 L CNN
F 2 "Resistor_SMD:R_0603_1608Metric_Pad1.05x0.95mm_HandSolder" H 4850 4550 50  0001 C CNN
F 3 "~" H 4850 4550 50  0001 C CNN
	1    4850 4550
	-1   0    0    1   
$EndComp
Wire Wire Line
	4850 4650 4850 4750
Wire Wire Line
	5050 4750 4850 4750
Connection ~ 5050 4750
Wire Wire Line
	5250 4750 5050 4750
$Comp
L power:GND #PWR01
U 1 1 5ED8D184
P 5050 4850
F 0 "#PWR01" H 5050 4600 50  0001 C CNN
F 1 "GND" H 5055 4677 50  0000 C CNN
F 2 "" H 5050 4850 50  0001 C CNN
F 3 "" H 5050 4850 50  0001 C CNN
	1    5050 4850
	1    0    0    -1  
$EndComp
Text Label 6150 5350 0    50   ~ 0
LEDA
Text Label 6150 5450 0    50   ~ 0
LEDK1
Text Label 6150 5550 0    50   ~ 0
LEDK2
Text Label 6150 5650 0    50   ~ 0
LEDK3
$Comp
L power:GND #PWR05
U 1 1 5EE0DFBE
P 5950 5850
F 0 "#PWR05" H 5950 5600 50  0001 C CNN
F 1 "GND" H 5955 5677 50  0000 C CNN
F 2 "" H 5950 5850 50  0001 C CNN
F 3 "" H 5950 5850 50  0001 C CNN
	1    5950 5850
	1    0    0    -1  
$EndComp
Text Label 6150 5850 0    50   ~ 0
IM0
Text Label 6150 5950 0    50   ~ 0
IM1
Text Label 6150 6050 0    50   ~ 0
IM2
Text Label 4950 3200 2    50   ~ 0
LEDA
Text Label 4850 4300 1    50   ~ 0
LEDK1
Text Label 5050 4300 1    50   ~ 0
LEDK2
Text Label 5250 4300 1    50   ~ 0
LEDK3
Text Label 5200 3700 0    50   ~ 0
IM0
Text Label 5400 3700 0    50   ~ 0
IM1
Text Label 5600 4400 0    50   ~ 0
IM2
Wire Wire Line
	4850 4450 4850 4300
Wire Wire Line
	5050 4450 5050 4300
Wire Wire Line
	5250 4450 5250 4300
Wire Wire Line
	5200 3500 5200 3700
Wire Wire Line
	5400 3500 5400 3700
Wire Wire Line
	4950 3200 5200 3200
Connection ~ 5200 3200
Wire Wire Line
	6150 6050 6450 6050
Wire Wire Line
	6450 5750 5950 5750
Wire Wire Line
	5950 5750 5950 5850
Wire Wire Line
	6150 5850 6450 5850
Wire Wire Line
	6150 5950 6450 5950
Wire Wire Line
	6150 5650 6450 5650
Wire Wire Line
	6150 5550 6450 5550
Wire Wire Line
	6150 5450 6450 5450
Wire Wire Line
	6150 5350 6450 5350
Wire Wire Line
	6450 4550 6300 4550
Wire Wire Line
	6300 4550 6300 4650
Wire Wire Line
	6300 5250 6450 5250
Wire Wire Line
	6300 5150 6450 5150
Connection ~ 6300 5150
Wire Wire Line
	6300 5150 6300 5250
Wire Wire Line
	6300 5050 6450 5050
Connection ~ 6300 5050
Wire Wire Line
	6300 5050 6300 5150
Wire Wire Line
	6300 4950 6450 4950
Connection ~ 6300 4950
Wire Wire Line
	6300 4950 6300 5050
Wire Wire Line
	6300 4850 6450 4850
Connection ~ 6300 4850
Wire Wire Line
	6300 4850 6300 4950
Wire Wire Line
	6300 4750 6450 4750
Connection ~ 6300 4750
Wire Wire Line
	6300 4750 6300 4850
Wire Wire Line
	6300 4650 6450 4650
Connection ~ 6300 4650
Wire Wire Line
	6300 4650 6300 4750
Wire Wire Line
	6300 5250 5950 5250
Wire Wire Line
	5950 5250 5950 5750
Connection ~ 6300 5250
Connection ~ 5950 5750
$Comp
L power:GND #PWR04
U 1 1 5F0D7779
P 5950 3750
F 0 "#PWR04" H 5950 3500 50  0001 C CNN
F 1 "GND" H 5955 3577 50  0000 C CNN
F 2 "" H 5950 3750 50  0001 C CNN
F 3 "" H 5950 3750 50  0001 C CNN
	1    5950 3750
	1    0    0    -1  
$EndComp
Wire Wire Line
	6450 3650 5950 3650
Wire Wire Line
	5950 3650 5950 3750
Wire Wire Line
	6450 3350 5950 3350
Wire Wire Line
	5950 3350 5950 3650
Connection ~ 5950 3650
$Comp
L power:GND #PWR03
U 1 1 5F121B83
P 5950 2650
F 0 "#PWR03" H 5950 2400 50  0001 C CNN
F 1 "GND" H 5955 2477 50  0000 C CNN
F 2 "" H 5950 2650 50  0001 C CNN
F 3 "" H 5950 2650 50  0001 C CNN
	1    5950 2650
	1    0    0    -1  
$EndComp
Wire Wire Line
	6450 2550 5950 2550
Wire Wire Line
	5950 2550 5950 2650
NoConn ~ 6450 2150
NoConn ~ 6450 2250
NoConn ~ 6450 2350
NoConn ~ 6450 2450
NoConn ~ 6450 2850
NoConn ~ 6450 3450
Wire Wire Line
	6450 3550 6150 3550
Text Label 6150 3550 0    50   ~ 0
RST
Text GLabel 6150 2450 1    50   Input ~ 0
+3.3V
Wire Wire Line
	6450 2650 6300 2650
Wire Wire Line
	6300 2650 6300 2700
Wire Wire Line
	6300 2750 6450 2750
Wire Wire Line
	6300 2700 6150 2700
Wire Wire Line
	6150 2450 6150 2700
Connection ~ 6300 2700
Wire Wire Line
	6300 2700 6300 2750
$Comp
L Device:LED D?
U 1 1 5F3E8293
P 5200 7050
AR Path="/5EA697B4/5F3E8293" Ref="D?"  Part="1" 
AR Path="/5E934C03/5F3E8293" Ref="D7"  Part="1" 
F 0 "D7" H 5350 7000 50  0000 C CNN
F 1 "LED" H 5200 7150 50  0000 C CNN
F 2 "newLib:led" H 5200 7050 50  0001 C CNN
F 3 "https://optoelectronics.liteon.com/upload/download/DS22-2000-226/LTST-S270KGKT.pdf" H 5200 7050 50  0001 C CNN
	1    5200 7050
	-1   0    0    1   
$EndComp
Wire Wire Line
	2250 1800 2250 1700
Wire Wire Line
	2250 1700 2350 1700
Connection ~ 2350 1700
$Comp
L Device:C_Small C44
U 1 1 5EC3FF1F
P 5250 2250
F 0 "C44" H 5342 2296 20  0000 L TNN
F 1 "0.1uF" H 5342 2205 20  0000 L TNN
F 2 "Capacitor_SMD:C_0603_1608Metric_Pad1.05x0.95mm_HandSolder" H 5250 2250 50  0001 C CNN
F 3 "~" H 5250 2250 50  0001 C CNN
F 4 "C" H 5250 2250 50  0001 C CNN "Spice_Primitive"
F 5 "0.1u" H 5250 2250 50  0001 C CNN "Spice_Model"
F 6 "Y" H 5250 2250 50  0001 C CNN "Spice_Netlist_Enabled"
	1    5250 2250
	1    0    0    -1  
$EndComp
$Comp
L Device:C_Small C45
U 1 1 5EC3FF28
P 5500 2250
F 0 "C45" H 5592 2296 20  0000 L TNN
F 1 "0.1uF" H 5592 2205 20  0000 L TNN
F 2 "Capacitor_SMD:C_0603_1608Metric_Pad1.05x0.95mm_HandSolder" H 5500 2250 50  0001 C CNN
F 3 "~" H 5500 2250 50  0001 C CNN
F 4 "C" H 5500 2250 50  0001 C CNN "Spice_Primitive"
F 5 "0.1u" H 5500 2250 50  0001 C CNN "Spice_Model"
F 6 "Y" H 5500 2250 50  0001 C CNN "Spice_Netlist_Enabled"
	1    5500 2250
	1    0    0    -1  
$EndComp
$Comp
L Device:C_Small C46
U 1 1 5EC3FF31
P 5750 2250
F 0 "C46" H 5842 2296 20  0000 L TNN
F 1 "10u" H 5842 2205 20  0000 L TNN
F 2 "Capacitor_SMD:C_0805_2012Metric_Pad1.15x1.40mm_HandSolder" H 5750 2250 50  0001 C CNN
F 3 "~" H 5750 2250 50  0001 C CNN
F 4 "C" H 5750 2250 50  0001 C CNN "Spice_Primitive"
F 5 "0.1u" H 5750 2250 50  0001 C CNN "Spice_Model"
F 6 "Y" H 5750 2250 50  0001 C CNN "Spice_Netlist_Enabled"
	1    5750 2250
	1    0    0    -1  
$EndComp
$Comp
L power:GND #PWR06
U 1 1 5EC3FF37
P 5500 2550
F 0 "#PWR06" H 5500 2300 50  0001 C CNN
F 1 "GND" H 5505 2377 50  0000 C CNN
F 2 "" H 5500 2550 50  0001 C CNN
F 3 "" H 5500 2550 50  0001 C CNN
	1    5500 2550
	1    0    0    -1  
$EndComp
Wire Wire Line
	5750 2050 5750 2150
Wire Wire Line
	5750 2450 5750 2350
Wire Wire Line
	5250 2350 5250 2450
Wire Wire Line
	5250 2450 5500 2450
Wire Wire Line
	5500 2350 5500 2450
Connection ~ 5500 2450
Wire Wire Line
	5500 2450 5750 2450
Wire Wire Line
	5500 2150 5500 2050
Connection ~ 5500 2050
Wire Wire Line
	5500 2050 5750 2050
Wire Wire Line
	5250 2150 5250 2050
Wire Wire Line
	5250 2050 5500 2050
Wire Wire Line
	5500 2550 5500 2450
Text GLabel 5500 1950 1    50   Input ~ 0
+3.3V
Wire Wire Line
	5500 1950 5500 2050
Wire Wire Line
	3750 6800 3850 6800
Wire Wire Line
	3150 6800 2950 6800
Wire Wire Line
	3150 3700 3450 3700
Text Label 3450 3700 2    50   ~ 0
RST
Text Label 3800 6700 1    50   ~ 0
USBS_D+
Text Label 3800 6800 3    50   ~ 0
USBS_D-
$Comp
L Device:L_Small L9
U 1 1 5EC9724B
P 4250 7300
F 0 "L9" H 4298 7346 50  0000 L CNN
F 1 "L_Small" H 4298 7255 50  0000 L CNN
F 2 "Inductor_SMD:L_0603_1608Metric_Pad1.05x0.95mm_HandSolder" H 4250 7300 50  0001 C CNN
F 3 "https://www.murata.com/en-us/products/productdata/8796738650142/ENFA0003.pdf" H 4250 7300 50  0001 C CNN
	1    4250 7300
	1    0    0    -1  
$EndComp
Wire Wire Line
	4150 7100 4150 7450
Wire Wire Line
	4150 7450 4200 7450
Wire Wire Line
	4250 7450 4250 7400
Wire Wire Line
	4250 7200 4250 7100
Wire Wire Line
	4200 7550 4200 7450
Connection ~ 4200 7450
Wire Wire Line
	4200 7450 4250 7450
$EndSCHEMATC
