EESchema Schematic File Version 4
EELAYER 30 0
EELAYER END
$Descr A4 11693 8268
encoding utf-8
Sheet 1 5
Title ""
Date ""
Rev ""
Comp ""
Comment1 ""
Comment2 ""
Comment3 ""
Comment4 ""
$EndDescr
$Sheet
S 1350 1600 1050 1000
U 5E85534A
F0 "Power & USB" 50
F1 "power.sch" 50
F2 "USB_D+" O R 2400 1750 50 
F3 "USB_D-" O R 2400 1900 50 
F4 "PC_RXD" O R 2400 2300 50 
F5 "PC_TXD" O R 2400 2400 50 
$EndSheet
$Sheet
S 4300 1500 1250 3850
U 5EA697B4
F0 "Onion 2S+" 50
F1 "onion.sch" 50
F2 "UART_TXD0" I L 4300 2300 50 
F3 "UART_RXD0" I L 4300 2400 50 
F4 "D+" I L 4300 1750 50 
F5 "D-" I L 4300 1900 50 
F6 "I2C_SDA" I R 5550 2650 50 
F7 "I2C_SCL" I R 5550 2550 50 
F8 "I2S_CLK" I R 5550 2200 50 
F9 "I2S_WS" I R 5550 2100 50 
F10 "I2S_SDO" I R 5550 2000 50 
F11 "UART_TXD1" I R 5550 3400 50 
F12 "UART_RXD1" I R 5550 3500 50 
F13 "JTAG_TCK" I R 5550 3900 50 
F14 "JTAG_TDI" I R 5550 3700 50 
F15 "JTAG_TDO" I R 5550 3800 50 
F16 "JTAG_TMS" I R 5550 4000 50 
F17 "JTAG_TRST" I R 5550 4100 50 
F18 "SPI_MISO" I R 5550 4350 50 
F19 "SPI_MOSI" I R 5550 4250 50 
F20 "SPI_CLK" I R 5550 4450 50 
F21 "SPI_CS0" I R 5550 4550 50 
F22 "SPI_CS1" I R 5550 4650 50 
F23 "AUDIO_MUTE" I R 5550 2400 50 
F24 "STM_BOOT0" I R 5550 4950 50 
F25 "STM_NRST" I R 5550 4850 50 
$EndSheet
Wire Wire Line
	2400 1900 4300 1900
Wire Wire Line
	2400 1750 4300 1750
$Sheet
S 6200 1850 1300 900 
U 5E927B6B
F0 "Audio" 50
F1 "audio.sch" 50
F2 "SDA" I L 6200 2650 50 
F3 "SCL" I L 6200 2550 50 
F4 "SD" I L 6200 2400 50 
F5 "MCLK" I L 6200 2200 50 
F6 "LRCLK" I L 6200 2100 50 
F7 "SDATA" I L 6200 2000 50 
$EndSheet
Wire Wire Line
	5550 2000 6200 2000
Wire Wire Line
	5550 2100 6200 2100
Wire Wire Line
	5550 2200 6200 2200
Wire Wire Line
	5550 2550 6000 2550
Wire Wire Line
	5550 2650 5900 2650
$Sheet
S 6200 3000 950  2050
U 5E934C03
F0 "STM32" 50
F1 "stm32.sch" 50
F2 "JTAG_TDI" I L 6200 3800 50 
F3 "JTAG_TDO" I L 6200 3700 50 
F4 "JTAG_TCK" I L 6200 3900 50 
F5 "JTAG_TMS" I L 6200 4000 50 
F6 "JTAG_TRST" I L 6200 4100 50 
F7 "I2C_SDA" I L 6200 3250 50 
F8 "I2C_SCL" I L 6200 3150 50 
F9 "SPI_MISO" I L 6200 4250 50 
F10 "UART_TX" I L 6200 3500 50 
F11 "UART_RX" I L 6200 3400 50 
F12 "SPI_MOSI" I L 6200 4350 50 
F13 "SPI_SCK" I L 6200 4450 50 
F14 "SPI_NSS" I L 6200 4550 50 
F15 "STM_NRST" I L 6200 4850 50 
F16 "STM_BOOT0" I L 6200 4950 50 
$EndSheet
Wire Wire Line
	2400 2400 4300 2400
Wire Wire Line
	2400 2300 4300 2300
Wire Wire Line
	6000 2550 6000 3150
Wire Wire Line
	6000 3150 6200 3150
Connection ~ 6000 2550
Wire Wire Line
	6000 2550 6200 2550
Wire Wire Line
	5900 2650 5900 3250
Wire Wire Line
	5900 3250 6200 3250
Connection ~ 5900 2650
Wire Wire Line
	5900 2650 6200 2650
Wire Wire Line
	5550 3400 6200 3400
Wire Wire Line
	5550 3500 6200 3500
Wire Wire Line
	5550 4550 6200 4550
Wire Wire Line
	5550 4450 6200 4450
Wire Wire Line
	5550 4350 6200 4350
Wire Wire Line
	5550 4250 6200 4250
Wire Wire Line
	5550 4100 6200 4100
Wire Wire Line
	5550 4000 6200 4000
Wire Wire Line
	5550 3900 6200 3900
Wire Wire Line
	5550 3800 6200 3800
Wire Wire Line
	5550 3700 6200 3700
Wire Wire Line
	5550 2400 6200 2400
Wire Wire Line
	5550 4850 6200 4850
Wire Wire Line
	5550 4950 6200 4950
$Comp
L Mechanical:MountingHole H1
U 1 1 5EBD1ED7
P 1550 4150
F 0 "H1" H 1650 4196 50  0000 L CNN
F 1 "MountingHole" H 1650 4105 50  0000 L CNN
F 2 "MountingHole:MountingHole_2.5mm_Pad" H 1550 4150 50  0001 C CNN
F 3 "~" H 1550 4150 50  0001 C CNN
	1    1550 4150
	1    0    0    -1  
$EndComp
$Comp
L Mechanical:MountingHole H2
U 1 1 5EBD2F48
P 1550 4500
F 0 "H2" H 1650 4546 50  0000 L CNN
F 1 "MountingHole" H 1650 4455 50  0000 L CNN
F 2 "MountingHole:MountingHole_2.5mm_Pad" H 1550 4500 50  0001 C CNN
F 3 "~" H 1550 4500 50  0001 C CNN
	1    1550 4500
	1    0    0    -1  
$EndComp
$Comp
L Mechanical:MountingHole H3
U 1 1 5EBD3684
P 1550 4850
F 0 "H3" H 1650 4896 50  0000 L CNN
F 1 "MountingHole" H 1650 4805 50  0000 L CNN
F 2 "MountingHole:MountingHole_2.5mm_Pad" H 1550 4850 50  0001 C CNN
F 3 "~" H 1550 4850 50  0001 C CNN
	1    1550 4850
	1    0    0    -1  
$EndComp
$Comp
L Mechanical:MountingHole H4
U 1 1 5EBD3D93
P 1550 5150
F 0 "H4" H 1650 5196 50  0000 L CNN
F 1 "MountingHole" H 1650 5105 50  0000 L CNN
F 2 "MountingHole:MountingHole_2.5mm_Pad" H 1550 5150 50  0001 C CNN
F 3 "~" H 1550 5150 50  0001 C CNN
	1    1550 5150
	1    0    0    -1  
$EndComp
NoConn ~ 5550 4650
$EndSCHEMATC
